quartus/Schematic/somador4bits/simulation/qsim/somador4bits.msim.vcd
$comment
	File created using the following command:
		vcd file somador4bits.msim.vcd -direction
$end
$date
	Tue Nov  5 14:41:13 2024
$end
$version
	ModelSim Version 10.1d
$end
$timescale
	1ps
$end
$scope module somador4bits_vlg_vec_tst $end
$var reg 1 ! a0 $end
$var reg 1 " a1 $end
$var reg 1 # a2 $end
$var reg 1 $ a3 $end
$var reg 1 % b0 $end
$var reg 1 & b1 $end
$var reg 1 ' b2 $end
$var reg 1 ( b3 $end
$var reg 1 ) cin $end
$var wire 1 * c0 $end
$var wire 1 + c1 $end
$var wire 1 , c2 $end
$var wire 1 - cout $end
$var wire 1 . s0 $end
$var wire 1 / s1 $end
$var wire 1 0 s2 $end
$var wire 1 1 s3 $end
$var wire 1 2 sampler $end
$scope module i1 $end
$var wire 1 3 gnd $end
$var wire 1 4 vcc $end
$var wire 1 5 unknown $end
$var tri1 1 6 devclrn $end
$var tri1 1 7 devpor $end
$var tri1 1 8 devoe $end
$var wire 1 9 s0~output_o $end
$var wire 1 : s1~output_o $end
$var wire 1 ; c0~output_o $end
$var wire 1 < s2~output_o $end
$var wire 1 = c1~output_o $end
$var wire 1 > s3~output_o $end
$var wire 1 ? c2~output_o $end
$var wire 1 @ cout~output_o $end
$var wire 1 A a0~input_o $end
$var wire 1 B b0~input_o $end
$var wire 1 C cin~input_o $end
$var wire 1 D inst|inst1|inst~0_combout $end
$var wire 1 E inst|inst2~0_combout $end
$var wire 1 F b1~input_o $end
$var wire 1 G a1~input_o $end
$var wire 1 H inst1|inst1|inst~combout $end
$var wire 1 I a2~input_o $end
$var wire 1 J inst1|inst2~0_combout $end
$var wire 1 K b2~input_o $end
$var wire 1 L inst2|inst1|inst~combout $end
$var wire 1 M inst2|inst2~0_combout $end
$var wire 1 N b3~input_o $end
$var wire 1 O a3~input_o $end
$var wire 1 P inst3|inst1|inst~combout $end
$var wire 1 Q inst3|inst2~0_combout $end
$upscope $end
$upscope $end
$enddefinitions $end
#0
$dumpvars
0!
0"
0#
0$
0%
0&
0'
0(
0)
0*
0+
0,
0-
0.
0/
00
01
x2
03
14
x5
16
17
18
09
0:
0;
0<
0=
0>
0?
0@
0A
0B
0C
0D
0E
0F
0G
0H
0I
0J
0K
0L
0M
0N
0O
0P
0Q
$end
#4000
1%
1B
02
1D
19
1.
#8000
1&
0%
1F
0B
12
1H
0D
1:
09
1/
0.
#12000
1%
1B
02
1D
19
1.
#16000
1'
0&
0%
1K
0F
0B
12
1L
0H
0D
1<
0:
09
10
0/
0.
#20000
1%
1B
02
1D
19
1.
#24000
1&
0%
1F
0B
12
1H
0D
1:
09
1/
0.
#28000
1%
1B
02
1D
19
1.
#32000
1(
0'
0&
0%
1N
0K
0F
0B
12
1P
0L
0H
0D
1>
0<
0:
09
11
00
0/
0.
#36000
1%
1B
02
1D
19
1.
#40000
1&
0%
1F
0B
12
1H
0D
1:
09
1/
0.
#44000
1%
1B
02
1D
19
1.
#48000
1'
0&
0%
1K
0F
0B
12
1L
0H
0D
1<
0:
09
10
0/
0.
#52000
1%
1B
02
1D
19
1.
#56000
1&
0%
1F
0B
12
1H
0D
1:
09
1/
0.
#60000
1%
1B
02
1D
19
1.
#64000
1!
0(
0'
0&
0%
1A
0N
0K
0F
0B
12
0P
0L
0H
0>
0<
0:
01
00
0/
#68000
1%
1B
02
1E
0D
1;
09
1*
0.
1H
1:
1/
#72000
1&
0%
1F
0B
12
1J
0H
0E
1D
1=
0:
0;
19
1+
0/
0*
1.
1L
0J
1H
1<
0=
1:
10
0+
1/
0L
0<
00
#76000
1%
1B
02
1E
0D
1;
09
1*
0.
1J
0H
1=
0:
1+
0/
1L
1<
10
#80000
1'
0&
0%
1K
0F
0B
12
1M
0L
0J
1H
0E
1D
1?
0<
0=
1:
0;
19
1,
00
0+
1/
0*
1.
1P
0M
1L
0H
1>
0?
1<
0:
11
0,
10
0/
0P
0>
01
#84000
1%
1B
02
1E
0D
1;
09
1*
0.
1H
1:
1/
#88000
1&
0%
1F
0B
12
1J
0H
0E
1D
1=
0:
0;
19
1+
0/
0*
1.
1M
0L
0J
1H
1?
0<
0=
1:
1,
00
0+
1/
1P
0M
1L
1>
0?
1<
11
0,
10
0P
0>
01
#92000
1%
1B
02
1E
0D
1;
09
1*
0.
1J
0H
1=
0:
1+
0/
1M
0L
1?
0<
1,
00
1P
1>
11
#96000
1(
0'
0&
0%
1N
0K
0F
0B
12
1Q
0P
0M
1L
0J
1H
0E
1D
1@
0>
0?
1<
0=
1:
0;
19
1-
01
0,
10
0+
1/
0*
1.
0Q
1P
0L
0H
0@
1>
0<
0:
0-
11
00
0/
#100000
1%
1B
02
1E
0D
1;
09
1*
0.
1H
1:
1/
#104000
1&
0%
1F
0B
12
1J
0H
0E
1D
1=
0:
0;
19
1+
0/
0*
1.
1L
0J
1H
1<
0=
1:
10
0+
1/
0L
0<
00
#108000
1%
1B
02
1E
0D
1;
09
1*
0.
1J
0H
1=
0:
1+
0/
1L
1<
10
#112000
1'
0&
0%
1K
0F
0B
12
1M
0L
0J
1H
0E
1D
1?
0<
0=
1:
0;
19
1,
00
0+
1/
0*
1.
1Q
0P
0M
1L
0H
1@
0>
0?
1<
0:
1-
01
0,
10
0/
0Q
1P
0@
1>
0-
11
#116000
1%
1B
02
1E
0D
1;
09
1*
0.
1H
1:
1/
#120000
1&
0%
1F
0B
12
1J
0H
0E
1D
1=
0:
0;
19
1+
0/
0*
1.
1M
0L
0J
1H
1?
0<
0=
1:
1,
00
0+
1/
1Q
0P
0M
1L
1@
0>
0?
1<
1-
01
0,
10
0Q
1P
0@
1>
0-
11
#124000
1%
1B
02
1E
0D
1;
09
1*
0.
1J
0H
1=
0:
1+
0/
1M
0L
1?
0<
1,
00
1Q
0P
1@
0>
1-
01
#128000
1"
0!
0(
0'
0&
0%
1G
0A
0N
0K
0F
0B
12
0E
0Q
1P
0M
1L
0;
0@
1>
0?
1<
0*
0-
11
0,
10
0J
1H
0P
0=
1:
0>
0+
1/
01
0L
0<
00
#132000
1%
1B
02
1D
19
1.
#136000
1&
0%
1F
0B
12
1J
0H
0D
1=
0:
09
1+
0/
0.
1L
1<
10
#140000
1%
1B
02
1D
19
1.
#144000
1'
0&
0%
1K
0F
0B
12
1M
0L
0J
1H
0D
1?
0<
0=
1:
09
1,
00
0+
1/
0.
1P
0M
1L
1>
0?
1<
11
0,
10
0P
0>
01
#148000
1%
1B
02
1D
19
1.
#152000
1&
0%
1F
0B
12
1J
0H
0D
1=
0:
09
1+
0/
0.
1M
0L
1?
0<
1,
00
1P
1>
11
#156000
1%
1B
02
1D
19
1.
#160000
1(
0'
0&
0%
1N
0K
0F
0B
12
1Q
0P
0M
1L
0J
1H
0D
1@
0>
0?
1<
0=
1:
09
1-
01
0,
10
0+
1/
0.
0Q
1P
0L
0@
1>
0<
0-
11
00
#164000
1%
1B
02
1D
19
1.
#168000
1&
0%
1F
0B
12
1J
0H
0D
1=
0:
09
1+
0/
0.
1L
1<
10
#172000
1%
1B
02
1D
19
1.
#176000
1'
0&
0%
1K
0F
0B
12
1M
0L
0J
1H
0D
1?
0<
0=
1:
09
1,
00
0+
1/
0.
1Q
0P
0M
1L
1@
0>
0?
1<
1-
01
0,
10
0Q
1P
0@
1>
0-
11
#180000
1%
1B
02
1D
19
1.
#184000
1&
0%
1F
0B
12
1J
0H
0D
1=
0:
09
1+
0/
0.
1M
0L
1?
0<
1,
00
1Q
0P
1@
0>
1-
01
#188000
1%
1B
02
1D
19
1.
#192000
1!
0(
0'
0&
0%
1A
0N
0K
0F
0B
12
0Q
1P
0M
1L
0J
1H
0@
1>
0?
1<
0=
1:
0-
11
0,
10
0+
1/
0P
0L
0>
0<
01
00
#196000
1%
1B
02
1E
0D
1;
09
1*
0.
1J
0H
1=
0:
1+
0/
1L
1<
10
#200000
1&
0%
1F
0B
12
1H
0E
1D
1:
0;
19
1/
0*
1.
0H
0:
0/
#204000
1%
1B
02
1E
0D
1;
09
1*
0.
1H
1:
1/
#208000
1'
0&
0%
1K
0F
0B
12
1M
0L
0H
0E
1D
1?
0<
0:
0;
19
1,
00
0/
0*
1.
1P
0J
1H
1>
0=
1:
11
0+
1/
0M
1L
0?
1<
0,
10
0P
0>
01
#212000
1%
1B
02
1E
0D
1;
09
1*
0.
1J
0H
1=
0:
1+
0/
1M
0L
1?
0<
1,
00
1P
1>
11
#216000
1&
0%
1F
0B
12
1H
0E
1D
1:
0;
19
1/
0*
1.
0H
0:
0/
#220000
1%
1B
02
1E
0D
1;
09
1*
0.
1H
1:
1/
#224000
1(
0'
0&
0%
1N
0K
0F
0B
12
1Q
0P
0M
1L
0H
0E
1D
1@
0>
0?
1<
0:
0;
19
1-
01
0,
10
0/
0*
1.
0Q
1P
0J
1H
0@
1>
0=
1:
0-
11
0+
1/
0L
0<
00
#228000
1%
1B
02
1E
0D
1;
09
1*
0.
1J
0H
1=
0:
1+
0/
1L
1<
10
#232000
1&
0%
1F
0B
12
1H
0E
1D
1:
0;
19
1/
0*
1.
0H
0:
0/
#236000
1%
1B
02
1E
0D
1;
09
1*
0.
1H
1:
1/
#240000
1'
0&
0%
1K
0F
0B
12
1M
0L
0H
0E
1D
1?
0<
0:
0;
19
1,
00
0/
0*
1.
1Q
0P
0J
1H
1@
0>
0=
1:
1-
01
0+
1/
0M
1L
0?
1<
0,
10
0Q
1P
0@
1>
0-
11
#244000
1%
1B
02
1E
0D
1;
09
1*
0.
1J
0H
1=
0:
1+
0/
1M
0L
1?
0<
1,
00
1Q
0P
1@
0>
1-
01
#248000
1&
0%
1F
0B
12
1H
0E
1D
1:
0;
19
1/
0*
1.
0H
0:
0/
#252000
1%
1B
02
1E
0D
1;
09
1*
0.
1H
1:
1/
#256000
1#
0"
0!
0(
0'
0&
0%
1I
0G
0A
0N
0K
0F
0B
12
0J
0E
0Q
1P
0=
0;
0@
1>
0+
0*
0-
11
0M
1L
0H
0?
1<
0:
0,
10
0/
0P
0>
01
#260000
1%
1B
02
1D
19
1.
#264000
1&
0%
1F
0B
12
1H
0D
1:
09
1/
0.
#268000
1%
1B
02
1D
19
1.
#272000
1'
0&
0%
1K
0F
0B
12
1M
0L
0H
0D
1?
0<
0:
09
1,
00
0/
0.
1P
1>
11
#276000
1%
1B
02
1D
19
1.
#280000
1&
0%
1F
0B
12
1H
0D
1:
09
1/
0.
#284000
1%
1B
02
1D
19
1.
#288000
1(
0'
0&
0%
1N
0K
0F
0B
12
1Q
0P
0M
1L
0H
0D
1@
0>
0?
1<
0:
09
1-
01
0,
10
0/
0.
0Q
1P
0@
1>
0-
11
#292000
1%
1B
02
1D
19
1.
#296000
1&
0%
1F
0B
12
1H
0D
1:
09
1/
0.
#300000
1%
1B
02
1D
19
1.
#304000
1'
0&
0%
1K
0F
0B
12
1M
0L
0H
0D
1?
0<
0:
09
1,
00
0/
0.
1Q
0P
1@
0>
1-
01
#308000
1%
1B
02
1D
19
1.
#312000
1&
0%
1F
0B
12
1H
0D
1:
09
1/
0.
#316000
1%
1B
02
1D
19
1.
#320000
1!
0(
0'
0&
0%
1A
0N
0K
0F
0B
12
0Q
1P
0M
1L
0H
0@
1>
0?
1<
0:
0-
11
0,
10
0/
0P
0>
01
#324000
1%
1B
02
1E
0D
1;
09
1*
0.
1H
1:
1/
#328000
1&
0%
1F
0B
12
1J
0H
0E
1D
1=
0:
0;
19
1+
0/
0*
1.
1M
0L
0J
1H
1?
0<
0=
1:
1,
00
0+
1/
1P
0M
1L
1>
0?
1<
11
0,
10
0P
0>
01
#332000
1%
1B
02
1E
0D
1;
09
1*
0.
1J
0H
1=
0:
1+
0/
1M
0L
1?
0<
1,
00
1P
1>
11
#336000
1'
0&
0%
1K
0F
0B
12
1L
0J
1H
0E
1D
1<
0=
1:
0;
19
10
0+
1/
0*
1.
0L
0H
0<
0:
00
0/
#340000
1%
1B
02
1E
0D
1;
09
1*
0.
1H
1:
1/
#344000
1&
0%
1F
0B
12
1J
0H
0E
1D
1=
0:
0;
19
1+
0/
0*
1.
1L
0J
1H
1<
0=
1:
10
0+
1/
0L
0<
00
#348000
1%
1B
02
1E
0D
1;
09
1*
0.
1J
0H
1=
0:
1+
0/
1L
1<
10
#352000
1(
0'
0&
0%
1N
0K
0F
0B
12
1Q
0P
0L
0J
1H
0E
1D
1@
0>
0<
0=
1:
0;
19
1-
01
00
0+
1/
0*
1.
0M
1L
0H
0?
1<
0:
0,
10
0/
0Q
1P
0@
1>
0-
11
#356000
1%
1B
02
1E
0D
1;
09
1*
0.
1H
1:
1/
#360000
1&
0%
1F
0B
12
1J
0H
0E
1D
1=
0:
0;
19
1+
0/
0*
1.
1M
0L
0J
1H
1?
0<
0=
1:
1,
00
0+
1/
1Q
0P
0M
1L
1@
0>
0?
1<
1-
01
0,
10
0Q
1P
0@
1>
0-
11
#364000
1%
1B
02
1E
0D
1;
09
1*
0.
1J
0H
1=
0:
1+
0/
1M
0L
1?
0<
1,
00
1Q
0P
1@
0>
1-
01
#368000
1'
0&
0%
1K
0F
0B
12
1L
0J
1H
0E
1D
1<
0=
1:
0;
19
10
0+
1/
0*
1.
0L
0H
0<
0:
00
0/
#372000
1%
1B
02
1E
0D
1;
09
1*
0.
1H
1:
1/
#376000
1&
0%
1F
0B
12
1J
0H
0E
1D
1=
0:
0;
19
1+
0/
0*
1.
1L
0J
1H
1<
0=
1:
10
0+
1/
0L
0<
00
#380000
1%
1B
02
1E
0D
1;
09
1*
0.
1J
0H
1=
0:
1+
0/
1L
1<
10
#384000
1"
0!
0(
0'
0&
0%
1G
0A
0N
0K
0F
0B
12
0E
0Q
1P
0L
0;
0@
1>
0<
0*
0-
11
00
0J
1H
0=
1:
0+
1/
0M
1L
0?
1<
0,
10
0P
0>
01
#388000
1%
1B
02
1D
19
1.
#392000
1&
0%
1F
0B
12
1J
0H
0D
1=
0:
09
1+
0/
0.
1M
0L
1?
0<
1,
00
1P
1>
11
#396000
1%
1B
02
1D
19
1.
#400000
1'
0&
0%
1K
0F
0B
12
1L
0J
1H
0D
1<
0=
1:
09
10
0+
1/
0.
0L
0<
00
#404000
1%
1B
02
1D
19
1.
#408000
1&
0%
1F
0B
12
1J
0H
0D
1=
0:
09
1+
0/
0.
1L
1<
10
#412000
1%
1B
02
1D
19
1.
#416000
1(
0'
0&
0%
1N
0K
0F
0B
12
1Q
0P
0L
0J
1H
0D
1@
0>
0<
0=
1:
09
1-
01
00
0+
1/
0.
0M
1L
0?
1<
0,
10
0Q
1P
0@
1>
0-
11
#420000
1%
1B
02
1D
19
1.
#424000
1&
0%
1F
0B
12
1J
0H
0D
1=
0:
09
1+
0/
0.
1M
0L
1?
0<
1,
00
1Q
0P
1@
0>
1-
01
#428000
1%
1B
02
1D
19
1.
#432000
1'
0&
0%
1K
0F
0B
12
1L
0J
1H
0D
1<
0=
1:
09
10
0+
1/
0.
0L
0<
00
#436000
1%
1B
02
1D
19
1.
#440000
1&
0%
1F
0B
12
1J
0H
0D
1=
0:
09
1+
0/
0.
1L
1<
10
#444000
1%
1B
02
1D
19
1.
#448000
1!
0(
0'
0&
0%
1A
0N
0K
0F
0B
12
0Q
1P
0L
0J
1H
0@
1>
0<
0=
1:
0-
11
00
0+
1/
0M
1L
0?
1<
0,
10
0P
0>
01
#452000
1%
1B
02
1E
0D
1;
09
1*
0.
1J
0H
1=
0:
1+
0/
1M
0L
1?
0<
1,
00
1P
1>
11
#456000
1&
0%
1F
0B
12
1H
0E
1D
1:
0;
19
1/
0*
1.
0H
0:
0/
#460000
1)
1%
1C
1B
02
1E
1;
1*
1H
1:
1/
#464000
1'
0&
0%
1K
0F
0B
12
1L
0H
0D
1<
0:
09
10
0/
0.
#468000
1%
1B
02
1D
19
1.
#472000
1&
0%
1F
0B
12
1H
0D
1:
09
1/
0.
#476000
1%
1B
02
1D
19
1.
#480000
1(
0'
0&
0%
1N
0K
0F
0B
12
1Q
0P
0L
0H
0D
1@
0>
0<
0:
09
1-
01
00
0/
0.
#484000
1%
1B
02
1D
19
1.
#488000
1&
0%
1F
0B
12
1H
0D
1:
09
1/
0.
#492000
1%
1B
02
1D
19
1.
#496000
1'
0&
0%
1K
0F
0B
12
1L
0H
0D
1<
0:
09
10
0/
0.
#500000
1%
1B
02
1D
19
1.
#504000
1&
0%
1F
0B
12
1H
0D
1:
09
1/
0.
#508000
1%
1B
02
1D
19
1.
#512000
1$
0#
0"
0!
0(
0'
0&
0%
1O
0I
0G
0A
0N
0K
0F
0B
12
0M
0J
0E
0?
0=
0;
0,
0+
0*
0Q
1P
0L
0H
0@
1>
0<
0:
0-
11
00
0/
#516000
1%
1B
02
1E
0D
1;
09
1*
0.
1H
1:
1/
#520000
1&
0%
1F
0B
12
1J
0H
0E
1D
1=
0:
0;
19
1+
0/
0*
1.
1L
0J
1H
1<
0=
1:
10
0+
1/
0L
0<
00
#524000
1%
1B
02
1E
0D
1;
09
1*
0.
1J
0H
1=
0:
1+
0/
1L
1<
10
#528000
1'
0&
0%
1K
0F
0B
12
1M
0L
0J
1H
0E
1D
1?
0<
0=
1:
0;
19
1,
00
0+
1/
0*
1.
1Q
0P
0M
1L
0H
1@
0>
0?
1<
0:
1-
01
0,
10
0/
0Q
1P
0@
1>
0-
11
#532000
1%
1B
02
1E
0D
1;
09
1*
0.
1H
1:
1/
#536000
1&
0%
1F
0B
12
1J
0H
0E
1D
1=
0:
0;
19
1+
0/
0*
1.
1M
0L
0J
1H
1?
0<
0=
1:
1,
00
0+
1/
1Q
0P
0M
1L
1@
0>
0?
1<
1-
01
0,
10
0Q
1P
0@
1>
0-
11
#540000
1%
1B
02
1E
0D
1;
09
1*
0.
1J
0H
1=
0:
1+
0/
1M
0L
1?
0<
1,
00
1Q
0P
1@
0>
1-
01
#544000
1(
0'
0&
0%
1N
0K
0F
0B
12
1P
0M
1L
0J
1H
0E
1D
1>
0?
1<
0=
1:
0;
19
11
0,
10
0+
1/
0*
1.
0P
0L
0H
0>
0<
0:
01
00
0/
#548000
1%
1B
02
1E
0D
1;
09
1*
0.
1H
1:
1/
#552000
1&
0%
1F
0B
12
1J
0H
0E
1D
1=
0:
0;
19
1+
0/
0*
1.
1L
0J
1H
1<
0=
1:
10
0+
1/
0L
0<
00
#556000
1%
1B
02
1E
0D
1;
09
1*
0.
1J
0H
1=
0:
1+
0/
1L
1<
10
#560000
1'
0&
0%
1K
0F
0B
12
1M
0L
0J
1H
0E
1D
1?
0<
0=
1:
0;
19
1,
00
0+
1/
0*
1.
1P
0M
1L
0H
1>
0?
1<
0:
11
0,
10
0/
0P
0>
01
#564000
1%
1B
02
1E
0D
1;
09
1*
0.
1H
1:
1/
#568000
1&
0%
1F
0B
12
1J
0H
0E
1D
1=
0:
0;
19
1+
0/
0*
1.
1M
0L
0J
1H
1?
0<
0=
1:
1,
00
0+
1/
1P
0M
1L
1>
0?
1<
11
0,
10
0P
0>
01
#572000
1%
1B
02
1E
0D
1;
09
1*
0.
1J
0H
1=
0:
1+
0/
1M
0L
1?
0<
1,
00
1P
1>
11
#576000
1!
0(
0'
0&
0%
1A
0N
0K
0F
0B
12
0P
0M
1L
0J
1H
0>
0?
1<
0=
1:
01
0,
10
0+
1/
0Q
1P
0L
0@
1>
0<
0-
11
00
#580000
1%
1B
02
1D
19
1.
#584000
1&
0%
1F
0B
12
1J
0H
0D
1=
0:
09
1+
0/
0.
1L
1<
10
#588000
1%
1B
02
1D
19
1.
#592000
1'
0&
0%
1K
0F
0B
12
1M
0L
0J
1H
0D
1?
0<
0=
1:
09
1,
00
0+
1/
0.
1Q
0P
0M
1L
1@
0>
0?
1<
1-
01
0,
10
0Q
1P
0@
1>
0-
11
#596000
1%
1B
02
1D
19
1.
#600000
1&
0%
1F
0B
12
1J
0H
0D
1=
0:
09
1+
0/
0.
1M
0L
1?
0<
1,
00
1Q
0P
1@
0>
1-
01
#604000
1%
1B
02
1D
19
1.
#608000
1(
0'
0&
0%
1N
0K
0F
0B
12
1P
0M
1L
0J
1H
0D
1>
0?
1<
0=
1:
09
11
0,
10
0+
1/
0.
0P
0L
0>
0<
01
00
#612000
1%
1B
02
1D
19
1.
#616000
1&
0%
1F
0B
12
1J
0H
0D
1=
0:
09
1+
0/
0.
1L
1<
10
#620000
1%
1B
02
1D
19
1.
#624000
1'
0&
0%
1K
0F
0B
12
1M
0L
0J
1H
0D
1?
0<
0=
1:
09
1,
00
0+
1/
0.
1P
0M
1L
1>
0?
1<
11
0,
10
0P
0>
01
#628000
1%
1B
02
1D
19
1.
#632000
1&
0%
1F
0B
12
1J
0H
0D
1=
0:
09
1+
0/
0.
1M
0L
1?
0<
1,
00
1P
1>
11
#636000
1%
1B
02
1D
19
1.
#640000
1"
0!
0(
0'
0&
0%
1G
0A
0N
0K
0F
0B
12
0E
0P
0M
1L
0;
0>
0?
1<
0*
01
0,
10
0J
1H
0Q
1P
0=
1:
0@
1>
0+
1/
0-
11
0L
0<
00
#644000
1%
1B
02
1E
0D
1;
09
1*
0.
1J
0H
1=
0:
1+
0/
1L
1<
10
#648000
1&
0%
1F
0B
12
1H
0E
1D
1:
0;
19
1/
0*
1.
0H
0:
0/
#652000
1%
1B
02
1E
0D
1;
09
1*
0.
1H
1:
1/
#656000
1'
0&
0%
1K
0F
0B
12
1M
0L
0H
0E
1D
1?
0<
0:
0;
19
1,
00
0/
0*
1.
1Q
0P
0J
1H
1@
0>
0=
1:
1-
01
0+
1/
0M
1L
0?
1<
0,
10
0Q
1P
0@
1>
0-
11
#660000
1%
1B
02
1E
0D
1;
09
1*
0.
1J
0H
1=
0:
1+
0/
1M
0L
1?
0<
1,
00
1Q
0P
1@
0>
1-
01
#664000
1&
0%
1F
0B
12
1H
0E
1D
1:
0;
19
1/
0*
1.
0H
0:
0/
#668000
1%
1B
02
1E
0D
1;
09
1*
0.
1H
1:
1/
#672000
1(
0'
0&
0%
1N
0K
0F
0B
12
1P
0M
1L
0H
0E
1D
1>
0?
1<
0:
0;
19
11
0,
10
0/
0*
1.
0P
0J
1H
0>
0=
1:
01
0+
1/
0L
0<
00
#676000
1%
1B
02
1E
0D
1;
09
1*
0.
1J
0H
1=
0:
1+
0/
1L
1<
10
#680000
1&
0%
1F
0B
12
1H
0E
1D
1:
0;
19
1/
0*
1.
0H
0:
0/
#684000
1%
1B
02
1E
0D
1;
09
1*
0.
1H
1:
1/
#688000
1'
0&
0%
1K
0F
0B
12
1M
0L
0H
0E
1D
1?
0<
0:
0;
19
1,
00
0/
0*
1.
1P
0J
1H
1>
0=
1:
11
0+
1/
0M
1L
0?
1<
0,
10
0P
0>
01
#692000
1%
1B
02
1E
0D
1;
09
1*
0.
1J
0H
1=
0:
1+
0/
1M
0L
1?
0<
1,
00
1P
1>
11
#696000
1&
0%
1F
0B
12
1H
0E
1D
1:
0;
19
1/
0*
1.
0H
0:
0/
#700000
1%
1B
02
1E
0D
1;
09
1*
0.
1H
1:
1/
#704000
1!
0(
0'
0&
0%
1A
0N
0K
0F
0B
12
0P
0M
1L
0H
0>
0?
1<
0:
01
0,
10
0/
0Q
1P
0@
1>
0-
11
#708000
1%
1B
02
1D
19
1.
#712000
1&
0%
1F
0B
12
1H
0D
1:
09
1/
0.
#716000
1%
1B
02
1D
19
1.
#720000
1'
0&
0%
1K
0F
0B
12
1M
0L
0H
0D
1?
0<
0:
09
1,
00
0/
0.
1Q
0P
1@
0>
1-
01
#724000
1%
1B
02
1D
19
1.
#728000
1&
0%
1F
0B
12
1H
0D
1:
09
1/
0.
#732000
1%
1B
02
1D
19
1.
#736000
1(
0'
0&
0%
1N
0K
0F
0B
12
1P
0M
1L
0H
0D
1>
0?
1<
0:
09
11
0,
10
0/
0.
0P
0>
01
#740000
1%
1B
02
1D
19
1.
#744000
1&
0%
1F
0B
12
1H
0D
1:
09
1/
0.
#748000
1%
1B
02
1D
19
1.
#752000
1'
0&
0%
1K
0F
0B
12
1M
0L
0H
0D
1?
0<
0:
09
1,
00
0/
0.
1P
1>
11
#756000
1%
1B
02
1D
19
1.
#760000
1&
0%
1F
0B
12
1H
0D
1:
09
1/
0.
#764000
1%
1B
02
1D
19
1.
#768000
1#
0"
0!
0(
0'
0&
0%
1I
0G
0A
0N
0K
0F
0B
12
0J
0E
0P
0=
0;
0>
0+
0*
01
0M
1L
0H
0?
1<
0:
0,
10
0/
0Q
1P
0@
1>
0-
11
#772000
1%
1B
02
1E
0D
1;
09
1*
0.
1H
1:
1/
#776000
1&
0%
1F
0B
12
1J
0H
0E
1D
1=
0:
0;
19
1+
0/
0*
1.
1M
0L
0J
1H
1?
0<
0=
1:
1,
00
0+
1/
1Q
0P
0M
1L
1@
0>
0?
1<
1-
01
0,
10
0Q
1P
0@
1>
0-
11
#780000
1%
1B
02
1E
0D
1;
09
1*
0.
1J
0H
1=
0:
1+
0/
1M
0L
1?
0<
1,
00
1Q
0P
1@
0>
1-
01
#784000
1'
0&
0%
1K
0F
0B
12
1L
0J
1H
0E
1D
1<
0=
1:
0;
19
10
0+
1/
0*
1.
0L
0H
0<
0:
00
0/
#788000
1%
1B
02
1E
0D
1;
09
1*
0.
1H
1:
1/
#792000
1&
0%
1F
0B
12
1J
0H
0E
1D
1=
0:
0;
19
1+
0/
0*
1.
1L
0J
1H
1<
0=
1:
10
0+
1/
0L
0<
00
#796000
1%
1B
02
1E
0D
1;
09
1*
0.
1J
0H
1=
0:
1+
0/
1L
1<
10
#800000
1(
0'
0&
0%
1N
0K
0F
0B
12
1P
0L
0J
1H
0E
1D
1>
0<
0=
1:
0;
19
11
00
0+
1/
0*
1.
0M
1L
0H
0?
1<
0:
0,
10
0/
0P
0>
01
#804000
1%
1B
02
1E
0D
1;
09
1*
0.
1H
1:
1/
#808000
1&
0%
1F
0B
12
1J
0H
0E
1D
1=
0:
0;
19
1+
0/
0*
1.
1M
0L
0J
1H
1?
0<
0=
1:
1,
00
0+
1/
1P
0M
1L
1>
0?
1<
11
0,
10
0P
0>
01
#812000
1%
1B
02
1E
0D
1;
09
1*
0.
1J
0H
1=
0:
1+
0/
1M
0L
1?
0<
1,
00
1P
1>
11
#816000
1'
0&
0%
1K
0F
0B
12
1L
0J
1H
0E
1D
1<
0=
1:
0;
19
10
0+
1/
0*
1.
0L
0H
0<
0:
00
0/
#820000
1%
1B
02
1E
0D
1;
09
1*
0.
1H
1:
1/
#824000
1&
0%
1F
0B
12
1J
0H
0E
1D
1=
0:
0;
19
1+
0/
0*
1.
1L
0J
1H
1<
0=
1:
10
0+
1/
0L
0<
00
#828000
1%
1B
02
1E
0D
1;
09
1*
0.
1J
0H
1=
0:
1+
0/
1L
1<
10
#832000
1!
0(
0'
0&
0%
1A
0N
0K
0F
0B
12
0P
0L
0J
1H
0>
0<
0=
1:
01
00
0+
1/
0M
1L
0?
1<
0,
10
0Q
1P
0@
1>
0-
11
#836000
1%
1B
02
1D
19
1.
#840000
1&
0%
1F
0B
12
1J
0H
0D
1=
0:
09
1+
0/
0.
1M
0L
1?
0<
1,
00
1Q
0P
1@
0>
1-
01
#844000
1%
1B
02
1D
19
1.
#848000
1'
0&
0%
1K
0F
0B
12
1L
0J
1H
0D
1<
0=
1:
09
10
0+
1/
0.
0L
0<
00
#852000
1%
1B
02
1D
19
1.
#856000
1&
0%
1F
0B
12
1J
0H
0D
1=
0:
09
1+
0/
0.
1L
1<
10
#860000
1%
1B
02
1D
19
1.
#864000
1(
0'
0&
0%
1N
0K
0F
0B
12
1P
0L
0J
1H
0D
1>
0<
0=
1:
09
11
00
0+
1/
0.
0M
1L
0?
1<
0,
10
0P
0>
01
#868000
1%
1B
02
1D
19
1.
#872000
1&
0%
1F
0B
12
1J
0H
0D
1=
0:
09
1+
0/
0.
1M
0L
1?
0<
1,
00
1P
1>
11
#876000
1%
1B
02
1D
19
1.
#880000
1'
0&
0%
1K
0F
0B
12
1L
0J
1H
0D
1<
0=
1:
09
10
0+
1/
0.
0L
0<
00
#884000
1%
1B
02
1D
19
1.
#888000
1&
0%
1F
0B
12
1J
0H
0D
1=
0:
09
1+
0/
0.
1L
1<
10
#892000
1%
1B
02
1D
19
1.
#896000
1"
0!
0(
0'
0&
0%
1G
0A
0N
0K
0F
0B
12
0E
0P
0L
0;
0>
0<
0*
01
00
0J
1H
0=
1:
0+
1/
0M
1L
0?
1<
0,
10
0Q
1P
0@
1>
0-
11
#900000
1%
1B
02
1E
0D
1;
09
1*
0.
1J
0H
1=
0:
1+
0/
1M
0L
1?
0<
1,
00
1Q
0P
1@
0>
1-
01
#904000
1&
0%
1F
0B
12
1H
0E
1D
1:
0;
19
1/
0*
1.
0H
0:
0/
#908000
1%
1B
02
1E
0D
1;
09
1*
0.
1H
1:
1/
#912000
1'
0&
0%
1K
0F
0B
12
1L
0H
0E
1D
1<
0:
0;
19
10
0/
0*
1.
0J
1H
0=
1:
0+
1/
0L
0<
00
#916000
1%
1B
02
1E
0D
1;
09
1*
0.
1J
0H
1=
0:
1+
0/
1L
1<
10
#920000
0)
1&
0%
0C
1F
0B
12
0E
1H
0;
1:
0*
1/
0H
0:
0/
#924000
1%
1B
02
1D
19
1.
#928000
1(
0'
0&
0%
1N
0K
0F
0B
12
1P
0L
0J
1H
0D
1>
0<
0=
1:
09
11
00
0+
1/
0.
0M
1L
0?
1<
0,
10
0P
0>
01
#932000
1%
1B
02
1D
19
1.
#936000
1&
0%
1F
0B
12
1J
0H
0D
1=
0:
09
1+
0/
0.
1M
0L
1?
0<
1,
00
1P
1>
11
#940000
1%
1B
02
1D
19
1.
#944000
1'
0&
0%
1K
0F
0B
12
1L
0J
1H
0D
1<
0=
1:
09
10
0+
1/
0.
0L
0<
00
#948000
1%
1B
02
1D
19
1.
