quartus/Verilog/maquinaVenda/simulation/qsim/maquinaVenda.msim.vcd
$comment
	File created using the following command:
		vcd file maquinaVenda.msim.vcd -direction
$end
$date
	Tue Dec  3 14:21:15 2024
$end
$version
	ModelSim Version 10.1d
$end
$timescale
	1ps
$end
$scope module maquinaVenda_vlg_vec_tst $end
$var reg 1 ! C $end
$var reg 1 " R $end
$var reg 1 # clk $end
$var reg 1 $ rst $end
$var wire 1 % L $end
$var wire 1 & state [1] $end
$var wire 1 ' state [0] $end
$var wire 1 ( sampler $end
$scope module i1 $end
$var wire 1 ) gnd $end
$var wire 1 * vcc $end
$var wire 1 + unknown $end
$var tri1 1 , devclrn $end
$var tri1 1 - devpor $end
$var tri1 1 . devoe $end
$var wire 1 / L~output_o $end
$var wire 1 0 state[0]~output_o $end
$var wire 1 1 state[1]~output_o $end
$var wire 1 2 clk~input_o $end
$var wire 1 3 clk~inputclkctrl_outclk $end
$var wire 1 4 rst~input_o $end
$var wire 1 5 R~input_o $end
$var wire 1 6 C~input_o $end
$var wire 1 7 state~2_combout $end
$var wire 1 8 state~3_combout $end
$var wire 1 9 state[0]~reg0_q $end
$var wire 1 : state~0_combout $end
$var wire 1 ; state~1_combout $end
$var wire 1 < state[1]~reg0_q $end
$var wire 1 = Decoder0~0_combout $end
$upscope $end
$upscope $end
$enddefinitions $end
#0
$dumpvars
0!
0"
0#
1$
0%
0'
0&
x(
0)
1*
x+
1,
1-
1.
0/
00
01
02
03
14
05
06
07
08
09
0:
0;
0<
0=
$end
#25000
1#
12
13
0(
#40000
0$
04
1(
#50000
0#
02
03
0(
#75000
1#
12
13
1(
#80000
1!
16
0(
17
18
#100000
0#
02
03
1(
#125000
1#
12
13
0(
19
1:
08
10
1'
1;
#150000
0#
02
03
1(
#160000
0!
06
0(
0:
07
0;
18
#175000
1#
12
13
1(
#200000
0#
02
03
0(
#210000
1!
16
1(
1:
17
1;
08
#225000
1#
12
13
0(
1<
09
18
0:
11
00
1&
0'
#250000
0#
02
03
1(
#275000
1#
12
13
0(
19
0;
1:
08
10
1'
1=
1/
1%
#300000
0#
02
03
1(
#310000
0!
06
0(
0:
07
#325000
1#
12
13
1(
0<
09
01
00
0&
0'
0=
0/
0%
#350000
0#
02
03
0(
#360000
1!
16
1(
17
18
#375000
1#
12
13
0(
19
1:
08
10
1'
1;
#400000
0#
02
03
1(
#410000
0!
06
0(
0:
07
0;
18
#425000
1#
12
13
1(
#450000
0#
02
03
0(
#470000
1"
15
1(
1:
1;
#475000
1#
12
13
0(
1<
0;
08
17
11
1&
1=
1/
1%
#500000
0#
02
03
1(
#525000
1#
12
13
0(
0<
09
1;
18
07
01
00
0&
0'
0=
08
0/
0%
#540000
0"
05
1(
0:
0;
#550000
0#
02
03
0(
#575000
1#
12
13
1(
#600000
0#
02
03
0(
#610000
1!
16
1(
17
18
#625000
1#
12
13
0(
19
1:
08
10
1'
1;
#650000
0#
02
03
1(
#660000
0!
06
0(
0:
07
0;
18
#675000
1#
12
13
1(
#700000
0#
02
03
0(
#720000
1"
15
1(
1:
1;
#725000
1#
12
13
0(
1<
0;
08
17
11
1&
1=
1/
1%
#750000
0#
02
03
1(
#775000
1#
12
13
0(
0<
09
1;
18
07
01
00
0&
0'
0=
08
0/
0%
#800000
0#
02
03
1(
#825000
1#
12
13
0(
1<
17
11
1&
18
#850000
0#
02
03
1(
#875000
1#
12
13
0(
19
0;
08
10
1'
1=
1/
1%
#900000
0#
02
03
1(
#925000
1#
12
13
0(
0<
09
1;
18
07
01
00
0&
0'
0=
08
0/
0%
#950000
0#
02
03
1(
#975000
1#
12
13
0(
1<
17
11
1&
18
#990000
0"
05
1(
0:
07
08
