quartus/shiftreg4bitsbib/simulation/qsim/shiftreg4bitsbib.msim.vcd
$comment
	File created using the following command:
		vcd file shiftreg4bitsbib.msim.vcd -direction
$end
$date
	Mon Nov 11 13:47:16 2024
$end
$version
	ModelSim Version 10.1d
$end
$timescale
	1ps
$end
$scope module shiftreg4bitsbib_vlg_vec_tst $end
$var reg 1 ! CLK $end
$var reg 4 " D [3:0] $end
$var reg 1 # R $end
$var reg 1 $ S $end
$var reg 2 % SEL [1:0] $end
$var wire 1 & int [3] $end
$var wire 1 ' int [2] $end
$var wire 1 ( int [1] $end
$var wire 1 ) int [0] $end
$var wire 1 * Q [3] $end
$var wire 1 + Q [2] $end
$var wire 1 , Q [1] $end
$var wire 1 - Q [0] $end
$var wire 1 . Qn [3] $end
$var wire 1 / Qn [2] $end
$var wire 1 0 Qn [1] $end
$var wire 1 1 Qn [0] $end
$var wire 1 2 sampler $end
$scope module i1 $end
$var wire 1 3 gnd $end
$var wire 1 4 vcc $end
$var wire 1 5 unknown $end
$var tri1 1 6 devclrn $end
$var tri1 1 7 devpor $end
$var tri1 1 8 devoe $end
$var wire 1 9 int[3]~output_o $end
$var wire 1 : int[2]~output_o $end
$var wire 1 ; int[1]~output_o $end
$var wire 1 < int[0]~output_o $end
$var wire 1 = Q[3]~output_o $end
$var wire 1 > Q[2]~output_o $end
$var wire 1 ? Q[1]~output_o $end
$var wire 1 @ Q[0]~output_o $end
$var wire 1 A Qn[3]~output_o $end
$var wire 1 B Qn[2]~output_o $end
$var wire 1 C Qn[1]~output_o $end
$var wire 1 D Qn[0]~output_o $end
$var wire 1 E D[3]~input_o $end
$var wire 1 F SEL[1]~input_o $end
$var wire 1 G R~input_o $end
$var wire 1 H S~input_o $end
$var wire 1 I CLK~input_o $end
$var wire 1 J CLK~inputclkctrl_outclk $end
$var wire 1 K SEL[0]~input_o $end
$var wire 1 L inst17~1_combout $end
$var wire 1 M inst16|$00001|auto_generated|result_node[0]~2_combout $end
$var wire 1 N inst17~3_combout $end
$var wire 1 O inst17~0_combout $end
$var wire 1 P inst17~0clkctrl_outclk $end
$var wire 1 Q inst17~_emulated_q $end
$var wire 1 R inst17~2_combout $end
$var wire 1 S D[2]~input_o $end
$var wire 1 T D[1]~input_o $end
$var wire 1 U D[0]~input_o $end
$var wire 1 V inst1|$00001|auto_generated|result_node[0]~2_combout $end
$var wire 1 W inst1|$00001|auto_generated|result_node[0]~3_combout $end
$var wire 1 X inst2~1_combout $end
$var wire 1 Y inst2~_emulated_q $end
$var wire 1 Z inst2~0_combout $end
$var wire 1 [ inst11|$00001|auto_generated|result_node[0]~0_combout $end
$var wire 1 \ inst11|$00001|auto_generated|result_node[0]~1_combout $end
$var wire 1 ] inst12~1_combout $end
$var wire 1 ^ inst12~_emulated_q $end
$var wire 1 _ inst12~0_combout $end
$var wire 1 ` inst13|$00001|auto_generated|result_node[0]~0_combout $end
$var wire 1 a inst13|$00001|auto_generated|result_node[0]~1_combout $end
$var wire 1 b inst14~1_combout $end
$var wire 1 c inst14~_emulated_q $end
$var wire 1 d inst14~0_combout $end
$var wire 1 e inst16|$00001|auto_generated|result_node[0]~3_combout $end
$var wire 1 f inst16|$00001|auto_generated|result_node[0]~4_combout $end
$var wire 1 g inst1|$00001|auto_generated|result_node[0]~4_combout $end
$upscope $end
$upscope $end
$enddefinitions $end
#0
$dumpvars
0!
b1111 "
1#
0$
b11 %
x)
x(
x'
x&
x-
x,
x+
x*
01
00
0/
0.
x2
03
14
x5
16
17
18
x9
x:
x;
x<
x=
x>
x?
x@
0A
0B
0C
0D
1E
1F
1G
0H
0I
xJ
1K
xL
xM
xN
xO
xP
0Q
xR
1S
1T
1U
xV
xW
xX
0Y
xZ
x[
x\
x]
0^
x_
x`
xa
xb
0c
xd
xe
xf
xg
$end
#378
0J
#3235
1[
#3239
1`
#3326
1V
#3423
1g
#3468
1O
#3539
1\
#3543
1a
#3691
1M
#3790
1f
#4076
0R
#4077
0Z
#4081
0L
0d
#4082
0_
#4449
0e
#4452
0W
#4607
1P
#4623
1b
#4626
1]
#4627
1X
#4781
1N
#5000
1!
02
#5527
1I
#5917
1J
#6637
1<
1)
#6866
1;
1(
#6980
19
1&
#7064
0@
0-
#7147
1:
1'
#7185
0?
0,
#7333
0=
0*
#8118
0>
0+
#10000
0!
12
#10701
0I
#11079
0J
#15000
1!
02
#15527
1I
#15917
1J
#20000
0!
12
#20701
0I
#21079
0J
#25000
1!
02
#25527
1I
#25917
1J
#30000
0!
12
#30701
0I
#31079
0J
#35000
1!
02
#35527
1I
#35917
1J
#40000
0!
12
#40701
0I
#41079
0J
#45000
1!
02
#45527
1I
#45917
1J
#50000
0!
12
#50701
0I
#51079
0J
#55000
1!
02
#55527
1I
#55917
1J
#60000
0#
0!
12
#60671
0G
#60701
0I
#61079
0J
#64416
0O
#65000
1!
02
#65527
1I
#65538
0P
#65917
1J
#67554
1Q
1Y
1^
1c
#67899
1Z
#67900
1d
1_
#68017
1R
#68251
1e
#68253
1W
#70000
0!
12
#70701
0I
#70990
1@
1-
#71079
0J
#71105
1?
1,
#71354
1=
1*
#71971
1>
1+
#75000
1!
02
#75527
1I
#75917
1J
#80000
0!
12
#80701
0I
#81079
0J
#85000
1!
02
#85527
1I
#85917
1J
#90000
0!
12
#90701
0I
#91079
0J
#95000
1!
02
#95527
1I
#95917
1J
#100000
0!
12
#100701
0I
#101079
0J
#105000
1!
02
#105527
1I
#105917
1J
#110000
0!
12
#110701
0I
#111079
0J
#115000
1!
02
#115527
1I
#115917
1J
#120000
0!
12
#120701
0I
#121079
0J
#125000
1!
02
#125527
1I
#125917
1J
#130000
0!
12
#130701
0I
#131079
0J
#135000
1!
02
#135527
1I
#135917
1J
#140000
0!
12
#140701
0I
#141079
0J
#145000
1!
02
#145527
1I
#145917
1J
#150000
0!
12
#150701
0I
#151079
0J
#155000
1!
02
#155527
1I
#155917
1J
#160000
0!
12
#160701
0I
#161079
0J
#165000
1!
02
#165527
1I
#165917
1J
#170000
0!
12
#170701
0I
#171079
0J
#175000
1!
02
#175527
1I
#175917
1J
#180000
0!
12
#180701
0I
#181079
0J
#185000
1!
02
#185527
1I
#185917
1J
#190000
0!
12
#190701
0I
#191079
0J
#195000
1!
02
#195527
1I
#195917
1J
#200000
0!
12
#200701
0I
#201079
0J
#205000
1!
02
#205527
1I
#205917
1J
#210000
0!
12
#210701
0I
#211079
0J
#215000
1!
02
#215527
1I
#215917
1J
#220000
0!
12
#220701
0I
#221079
0J
#225000
1!
02
#225527
1I
#225917
1J
#230000
0!
12
#230701
0I
#231079
0J
#235000
1!
02
#235527
1I
#235917
1J
#240000
0!
12
#240701
0I
#241079
0J
#245000
1!
02
#245527
1I
#245917
1J
#250000
b111 "
b101 "
b100 "
0!
12
#250691
0U
#250701
0I
#250708
0T
#250711
0E
#251079
0J
#254264
0V
#254369
0g
#254450
0\
#254674
0M
#254782
0f
#254789
0]
#254989
0X
#255000
1!
02
#255236
0N
#255527
1I
#255917
1J
#257483
0<
0)
#257554
0Q
0Y
0^
#257695
0;
0(
#257868
09
0&
#257955
0Z
#257956
0_
#258084
0R
#258326
0W
#260000
0!
12
#260701
0I
#260942
0@
0-
#261059
0?
0,
#261079
0J
#261341
0=
0*
#265000
1!
02
#265527
1I
#265917
1J
#270000
0!
12
#270701
0I
#271079
0J
#275000
1!
02
#275527
1I
#275917
1J
#280000
0!
12
#280701
0I
#281079
0J
#285000
1!
02
#285527
1I
#285917
1J
#290000
0!
12
#290701
0I
#291079
0J
#295000
1!
02
#295527
1I
#295917
1J
#300000
0!
12
#300701
0I
#301079
0J
#305000
1!
02
#305527
1I
#305917
1J
#310000
0!
12
#310701
0I
#311079
0J
#315000
1!
02
#315527
1I
#315917
1J
#320000
b1 %
b0 %
0!
12
#320698
0F
0K
#320701
0I
#321079
0J
#324154
1f
#324178
1N
#324227
1\
#324237
0[
#324242
0e
#324552
1]
#324555
0\
#324582
0N
#324836
0f
#324894
0]
#325000
1!
02
#325527
1I
#325917
1J
#330000
0!
12
#330701
0I
#331079
0J
#335000
1!
02
#335527
1I
#335917
1J
#340000
0!
12
#340701
0I
#341079
0J
#345000
1!
02
#345527
1I
#345917
1J
#350000
0!
12
#350701
0I
#351079
0J
#355000
1!
02
#355527
1I
#355917
1J
#360000
0!
12
#360701
0I
#361079
0J
#365000
1!
02
#365527
1I
#365917
1J
#370000
0!
12
#370701
0I
#371079
0J
#375000
1!
02
#375527
1I
#375917
1J
#380000
0!
12
#380701
0I
#381079
0J
#385000
1!
02
#385527
1I
#385917
1J
#390000
0!
12
#390701
0I
#391079
0J
#395000
1!
02
#395527
1I
#395917
1J
#400000
0!
12
#400701
0I
#401079
0J
#405000
1!
02
#405527
1I
#405917
1J
#410000
0!
12
#410701
0I
#411079
0J
#415000
1!
02
#415527
1I
#415917
1J
#420000
0!
12
#420701
0I
#421079
0J
#425000
1!
02
#425527
1I
#425917
1J
#430000
0!
12
#430701
0I
#431079
0J
#435000
1!
02
#435527
1I
#435917
1J
#440000
b10 %
b11 %
0!
12
#440525
1F
1K
#440701
0I
#441079
0J
#443760
1[
#443769
1\
#443781
1e
#444054
0\
#444094
1]
#444393
0]
#445000
1!
02
#445527
1I
#445917
1J
#450000
0!
12
#450701
0I
#451079
0J
#455000
1!
02
#455527
1I
#455917
1J
#460000
0!
12
#460701
0I
#461079
0J
#465000
1!
02
#465527
1I
#465917
1J
#470000
0!
12
#470701
0I
#471079
0J
#475000
1!
02
#475527
1I
#475917
1J
#480000
b1100 "
b1101 "
0!
12
#480517
1U
#480537
1E
#480701
0I
#481079
0J
#483843
1V
#483940
1g
#484228
1M
#484327
1f
#484544
1X
#484785
1N
#485000
1!
02
#485527
1I
#485917
1J
#487154
1<
1)
#487517
19
1&
#487554
1Q
1Y
#487899
1Z
#488017
1R
#490000
0!
12
#490701
0I
#490990
1@
1-
#491079
0J
#491354
1=
1*
#495000
1!
02
#495527
1I
#495917
1J
#500000
0!
12
#500701
0I
#501079
0J
#505000
1!
02
#505527
1I
#505917
1J
#510000
0!
12
#510701
0I
#511079
0J
#515000
1!
02
#515527
1I
#515917
1J
#520000
0!
12
#520701
0I
#521079
0J
#525000
1!
02
#525527
1I
#525917
1J
#530000
b1 %
0!
12
#530698
0F
#530701
0I
#531079
0J
#534219
0g
#534237
0[
#534238
0`
#534318
0V
#534319
0M
#534321
0f
#534565
1\
#534881
0N
#534890
1]
#535000
1!
02
#535043
0X
#535527
1I
#535917
1J
#537333
0<
0)
#537407
09
0&
#537554
0Q
0Y
1^
#537892
1;
1(
#537900
1_
#537955
0Z
#538084
0R
#538253
1W
#538559
0e
#538561
0a
#538699
1X
#538900
0b
#539210
1g
#540000
0!
12
#540701
0I
#540942
0@
0-
#541079
0J
#541105
1?
1,
#541341
0=
0*
#542077
0:
0'
#542424
1<
1)
#545000
1!
02
#545527
1I
#545917
1J
#547554
1Y
0c
#547899
1Z
#547954
0d
#548564
0\
#548903
0]
#550000
0!
12
#550701
0I
#550990
1@
1-
#551079
0J
#551809
0;
0(
#551991
0>
0+
#555000
1!
02
#555527
1I
#555917
1J
#557554
0^
#557956
0_
#558326
0W
#558776
0X
#559320
0g
#560000
0!
12
#560701
0I
#561059
0?
0,
#561079
0J
#562434
0<
0)
#565000
1!
02
#565527
1I
#565917
1J
#567554
0Y
#567955
0Z
#570000
0!
12
#570701
0I
#570942
0@
0-
#571079
0J
#575000
1!
02
#575527
1I
#575917
1J
#580000
0!
12
#580701
0I
#581079
0J
#585000
1!
02
#585527
1I
#585917
1J
#590000
0!
12
#590701
0I
#591079
0J
#595000
1!
02
#595527
1I
#595917
1J
#600000
0!
12
#600701
0I
#601079
0J
#605000
1!
02
#605527
1I
#605917
1J
#610000
0!
12
#610701
0I
#611079
0J
#615000
1!
02
#615527
1I
#615917
1J
#620000
0!
12
#620701
0I
#621079
0J
#625000
1!
02
#625527
1I
#625917
1J
#630000
0!
12
#630701
0I
#631079
0J
#635000
1!
02
#635527
1I
#635917
1J
#640000
b11 %
0!
12
#640525
1F
#640701
0I
#641079
0J
#643758
1[
#643759
1`
#643789
1g
#643878
1f
#643885
1M
1V
#644063
1a
#644387
1b
#644442
1N
#644586
1X
#645000
1!
02
#645527
1I
#645917
1J
#647003
1<
1)
#647068
19
1&
#647554
1Q
1Y
1c
#647667
1:
1'
#647899
1Z
#647900
1d
#648017
1R
#648251
1e
#650000
0!
12
#650701
0I
#650990
1@
1-
#651079
0J
#651354
1=
1*
#651971
1>
1+
#655000
1!
02
#655527
1I
#655917
1J
#660000
0!
12
#660701
0I
#661079
0J
#665000
1!
02
#665527
1I
#665917
1J
#670000
0!
12
#670701
0I
#671079
0J
#675000
1!
02
#675527
1I
#675917
1J
#680000
0!
12
#680701
0I
#681079
0J
#685000
1!
02
#685527
1I
#685917
1J
#690000
0!
12
#690701
0I
#691079
0J
#695000
1!
02
#695527
1I
#695917
1J
#700000
0!
12
#700701
0I
#701079
0J
#705000
1!
02
#705527
1I
#705917
1J
#710000
0!
12
#710701
0I
#711079
0J
#715000
1!
02
#715527
1I
#715917
1J
#720000
0!
12
#720701
0I
#721079
0J
#725000
1!
02
#725527
1I
#725917
1J
#730000
b101 "
0!
12
#730701
0I
#730711
0E
#731079
0J
#734674
0M
#734782
0f
#735000
1!
02
#735236
0N
#735527
1I
#735917
1J
#737554
0Q
#737868
09
0&
#738084
0R
#740000
0!
12
#740701
0I
#741079
0J
#741341
0=
0*
#745000
1!
02
#745527
1I
#745917
1J
#750000
0!
12
#750701
0I
#751079
0J
#755000
1!
02
#755527
1I
#755917
1J
#760000
0!
12
#760701
0I
#761079
0J
#765000
1!
02
#765527
1I
#765917
1J
#770000
0!
12
#770701
0I
#771079
0J
#775000
1!
02
#775527
1I
#775917
1J
#780000
0!
12
#780701
0I
#781079
0J
#785000
1!
02
#785527
1I
#785917
1J
#790000
0!
12
#790701
0I
#791079
0J
#795000
1!
02
#795527
1I
#795917
1J
#800000
0!
12
#800701
0I
#801079
0J
#805000
1!
02
#805527
1I
#805917
1J
#810000
0!
12
#810701
0I
#811079
0J
#815000
1!
02
#815527
1I
#815917
1J
#820000
0!
12
#820701
0I
#821079
0J
#825000
1!
02
#825527
1I
#825917
1J
#830000
b10 %
0!
12
#830698
0K
#830701
0I
#831079
0J
#834144
0g
#834146
0V
#834154
1f
#834178
1N
#834227
1\
#834243
1W
#834250
0`
#834552
1]
#834568
0a
#834871
0X
#834907
0b
#835000
1!
02
#835527
1I
#835917
1J
#837258
0<
0)
#837344
19
1&
#837554
1;
1Q
0Y
1^
0c
1(
#837900
1_
#837954
0d
#837955
0Z
#838017
1R
#838084
0:
0'
#838322
0e
#838429
0W
#838431
0[
#838504
1`
#838662
0N
#838749
0\
#838808
1a
#838916
0f
#839088
0]
#839132
1b
#840000
0!
12
#840701
0I
#840942
0@
0-
#841079
0J
#841105
1?
1,
#841354
1=
1*
#841991
0>
0+
#841994
0;
0(
#842002
09
0&
#842412
1:
1'
#845000
1!
02
#845527
1I
#845917
1J
#847554
0Q
0^
1c
#847900
1d
#847956
0_
#848084
0R
#848251
1e
#848566
0`
#848577
1N
#848830
1f
#848884
0a
#849223
0b
#850000
0!
12
#850701
0I
#851059
0?
0,
#851079
0J
#851341
0=
0*
#851971
1>
1+
#852020
19
1&
#852400
0:
0'
#855000
1!
02
#855527
1I
#855917
1J
#857554
1Q
0c
#857954
0d
#858017
1R
#858322
0e
#858662
0N
#858916
0f
#860000
0!
12
#860701
0I
#861079
0J
#861354
1=
1*
#861991
0>
0+
#862002
09
0&
#865000
1!
02
#865527
1I
#865917
1J
#867554
0Q
#868084
0R
#870000
0!
12
#870701
0I
#871079
0J
#871341
0=
0*
#875000
1!
02
#875527
1I
#875917
1J
#880000
0!
12
#880701
0I
#881079
0J
#885000
1!
02
#885527
1I
#885917
1J
#890000
0!
12
#890701
0I
#891079
0J
#895000
1!
02
#895527
1I
#895917
1J
#900000
0!
12
#900701
0I
#901079
0J
#905000
1!
02
#905527
1I
#905917
1J
#910000
0!
12
#910701
0I
#911079
0J
#915000
1!
02
#915527
1I
#915917
1J
#920000
0!
12
#920701
0I
#921079
0J
#925000
1!
02
#925527
1I
#925917
1J
#930000
0!
12
#930701
0I
#931079
0J
#935000
1!
02
#935527
1I
#935917
1J
#940000
0!
12
#940701
0I
#941079
0J
#945000
1!
02
#945527
1I
#945917
1J
#950000
0!
12
#950701
0I
#951079
0J
#955000
1!
02
#955527
1I
#955917
1J
#960000
0!
12
#960701
0I
#961079
0J
#965000
1!
02
#965527
1I
#965917
1J
#970000
0!
12
#970701
0I
#971079
0J
#975000
1!
02
#975527
1I
#975917
1J
#980000
0!
12
#980701
0I
#981079
0J
#985000
1!
02
#985527
1I
#985917
1J
#990000
0!
12
#990701
0I
#991079
0J
#995000
1!
02
#995527
1I
