quartus/Verilog/Parity_Partes/simulation/qsim/Parity_Partes.msim.vcd
$comment
	File created using the following command:
		vcd file Parity_Partes.msim.vcd -direction
$end
$date
	Wed Dec  4 14:51:00 2024
$end
$version
	ModelSim Version 10.1d
$end
$timescale
	1ps
$end
$scope module Parity_Partes_vlg_vec_tst $end
$var reg 32 ! A [31:0] $end
$var reg 1 " clk $end
$var reg 1 # rst $end
$var reg 1 $ start $end
$var wire 1 % Areg [31] $end
$var wire 1 & Areg [30] $end
$var wire 1 ' Areg [29] $end
$var wire 1 ( Areg [28] $end
$var wire 1 ) Areg [27] $end
$var wire 1 * Areg [26] $end
$var wire 1 + Areg [25] $end
$var wire 1 , Areg [24] $end
$var wire 1 - Areg [23] $end
$var wire 1 . Areg [22] $end
$var wire 1 / Areg [21] $end
$var wire 1 0 Areg [20] $end
$var wire 1 1 Areg [19] $end
$var wire 1 2 Areg [18] $end
$var wire 1 3 Areg [17] $end
$var wire 1 4 Areg [16] $end
$var wire 1 5 Areg [15] $end
$var wire 1 6 Areg [14] $end
$var wire 1 7 Areg [13] $end
$var wire 1 8 Areg [12] $end
$var wire 1 9 Areg [11] $end
$var wire 1 : Areg [10] $end
$var wire 1 ; Areg [9] $end
$var wire 1 < Areg [8] $end
$var wire 1 = Areg [7] $end
$var wire 1 > Areg [6] $end
$var wire 1 ? Areg [5] $end
$var wire 1 @ Areg [4] $end
$var wire 1 A Areg [3] $end
$var wire 1 B Areg [2] $end
$var wire 1 C Areg [1] $end
$var wire 1 D Areg [0] $end
$var wire 1 E S [8] $end
$var wire 1 F S [7] $end
$var wire 1 G S [6] $end
$var wire 1 H S [5] $end
$var wire 1 I S [4] $end
$var wire 1 J S [3] $end
$var wire 1 K S [2] $end
$var wire 1 L S [1] $end
$var wire 1 M S [0] $end
$var wire 1 N done $end
$var wire 1 O estado [2] $end
$var wire 1 P estado [1] $end
$var wire 1 Q estado [0] $end
$var wire 1 R val $end
$var wire 1 S sampler $end
$scope module i1 $end
$var wire 1 T gnd $end
$var wire 1 U vcc $end
$var wire 1 V unknown $end
$var tri1 1 W devclrn $end
$var tri1 1 X devpor $end
$var tri1 1 Y devoe $end
$var wire 1 Z S[0]~output_o $end
$var wire 1 [ S[1]~output_o $end
$var wire 1 \ S[2]~output_o $end
$var wire 1 ] S[3]~output_o $end
$var wire 1 ^ S[4]~output_o $end
$var wire 1 _ S[5]~output_o $end
$var wire 1 ` S[6]~output_o $end
$var wire 1 a S[7]~output_o $end
$var wire 1 b S[8]~output_o $end
$var wire 1 c val~output_o $end
$var wire 1 d done~output_o $end
$var wire 1 e estado[0]~output_o $end
$var wire 1 f estado[1]~output_o $end
$var wire 1 g estado[2]~output_o $end
$var wire 1 h Areg[0]~output_o $end
$var wire 1 i Areg[1]~output_o $end
$var wire 1 j Areg[2]~output_o $end
$var wire 1 k Areg[3]~output_o $end
$var wire 1 l Areg[4]~output_o $end
$var wire 1 m Areg[5]~output_o $end
$var wire 1 n Areg[6]~output_o $end
$var wire 1 o Areg[7]~output_o $end
$var wire 1 p Areg[8]~output_o $end
$var wire 1 q Areg[9]~output_o $end
$var wire 1 r Areg[10]~output_o $end
$var wire 1 s Areg[11]~output_o $end
$var wire 1 t Areg[12]~output_o $end
$var wire 1 u Areg[13]~output_o $end
$var wire 1 v Areg[14]~output_o $end
$var wire 1 w Areg[15]~output_o $end
$var wire 1 x Areg[16]~output_o $end
$var wire 1 y Areg[17]~output_o $end
$var wire 1 z Areg[18]~output_o $end
$var wire 1 { Areg[19]~output_o $end
$var wire 1 | Areg[20]~output_o $end
$var wire 1 } Areg[21]~output_o $end
$var wire 1 ~ Areg[22]~output_o $end
$var wire 1 !! Areg[23]~output_o $end
$var wire 1 "! Areg[24]~output_o $end
$var wire 1 #! Areg[25]~output_o $end
$var wire 1 $! Areg[26]~output_o $end
$var wire 1 %! Areg[27]~output_o $end
$var wire 1 &! Areg[28]~output_o $end
$var wire 1 '! Areg[29]~output_o $end
$var wire 1 (! Areg[30]~output_o $end
$var wire 1 )! Areg[31]~output_o $end
$var wire 1 *! clk~input_o $end
$var wire 1 +! clk~inputclkctrl_outclk $end
$var wire 1 ,! A[16]~input_o $end
$var wire 1 -! start~input_o $end
$var wire 1 .! A[31]~input_o $end
$var wire 1 /! regA~32_combout $end
$var wire 1 0! regA[20]~1_combout $end
$var wire 1 1! A[0]~input_o $end
$var wire 1 2! regA~0_combout $end
$var wire 1 3! Selector0~0_combout $end
$var wire 1 4! Selector0~1_combout $end
$var wire 1 5! rst~input_o $end
$var wire 1 6! rst~inputclkctrl_outclk $end
$var wire 1 7! state.S0~q $end
$var wire 1 8! Selector1~0_combout $end
$var wire 1 9! state.S1~q $end
$var wire 1 :! Selector2~2_combout $end
$var wire 1 ;! state.S2~q $end
$var wire 1 <! state.S3~q $end
$var wire 1 =! state.S4~q $end
$var wire 1 >! state.FIM~q $end
$var wire 1 ?! regA~17_combout $end
$var wire 1 @! regS[2]~0_combout $end
$var wire 1 A! A[24]~input_o $end
$var wire 1 B! regA~25_combout $end
$var wire 1 C! A[8]~input_o $end
$var wire 1 D! regA~9_combout $end
$var wire 1 E! regS[2]~1_combout $end
$var wire 1 F! regS~2_combout $end
$var wire 1 G! regS~3_combout $end
$var wire 1 H! WideOr0~0_combout $end
$var wire 1 I! regS[2]~4_combout $end
$var wire 1 J! A[1]~input_o $end
$var wire 1 K! regA~2_combout $end
$var wire 1 L! A[9]~input_o $end
$var wire 1 M! regA~10_combout $end
$var wire 1 N! A[25]~input_o $end
$var wire 1 O! regA~26_combout $end
$var wire 1 P! A[17]~input_o $end
$var wire 1 Q! regA~18_combout $end
$var wire 1 R! regS~5_combout $end
$var wire 1 S! regS~6_combout $end
$var wire 1 T! A[2]~input_o $end
$var wire 1 U! regA~3_combout $end
$var wire 1 V! A[18]~input_o $end
$var wire 1 W! regA~19_combout $end
$var wire 1 X! A[26]~input_o $end
$var wire 1 Y! regA~27_combout $end
$var wire 1 Z! A[10]~input_o $end
$var wire 1 [! regA~11_combout $end
$var wire 1 \! regS~7_combout $end
$var wire 1 ]! regS~8_combout $end
$var wire 1 ^! A[11]~input_o $end
$var wire 1 _! regA~12_combout $end
$var wire 1 `! A[3]~input_o $end
$var wire 1 a! regA~4_combout $end
$var wire 1 b! A[19]~input_o $end
$var wire 1 c! regA~20_combout $end
$var wire 1 d! A[27]~input_o $end
$var wire 1 e! regA~28_combout $end
$var wire 1 f! regS~9_combout $end
$var wire 1 g! regS~10_combout $end
$var wire 1 h! A[4]~input_o $end
$var wire 1 i! regA~5_combout $end
$var wire 1 j! A[20]~input_o $end
$var wire 1 k! regA~21_combout $end
$var wire 1 l! A[28]~input_o $end
$var wire 1 m! regA~29_combout $end
$var wire 1 n! A[12]~input_o $end
$var wire 1 o! regA~13_combout $end
$var wire 1 p! regS~11_combout $end
$var wire 1 q! regS~12_combout $end
$var wire 1 r! A[13]~input_o $end
$var wire 1 s! regA~14_combout $end
$var wire 1 t! A[5]~input_o $end
$var wire 1 u! regA~6_combout $end
$var wire 1 v! A[21]~input_o $end
$var wire 1 w! regA~22_combout $end
$var wire 1 x! A[29]~input_o $end
$var wire 1 y! regA~30_combout $end
$var wire 1 z! regS~13_combout $end
$var wire 1 {! regS~14_combout $end
$var wire 1 |! A[22]~input_o $end
$var wire 1 }! regA~23_combout $end
$var wire 1 ~! A[6]~input_o $end
$var wire 1 !" regA~7_combout $end
$var wire 1 "" A[30]~input_o $end
$var wire 1 #" regA~31_combout $end
$var wire 1 $" A[14]~input_o $end
$var wire 1 %" regA~15_combout $end
$var wire 1 &" regS~15_combout $end
$var wire 1 '" regS~16_combout $end
$var wire 1 (" A[7]~input_o $end
$var wire 1 )" regA~8_combout $end
$var wire 1 *" A[15]~input_o $end
$var wire 1 +" regA~16_combout $end
$var wire 1 ," A[23]~input_o $end
$var wire 1 -" regA~24_combout $end
$var wire 1 ." regS~17_combout $end
$var wire 1 /" regS~18_combout $end
$var wire 1 0" WideXor1~1_combout $end
$var wire 1 1" WideXor2~1_combout $end
$var wire 1 2" regS~21_combout $end
$var wire 1 3" WideXor1~0_combout $end
$var wire 1 4" WideXor3~0_combout $end
$var wire 1 5" WideXor3~1_combout $end
$var wire 1 6" regS~19_combout $end
$var wire 1 7" WideXor2~0_combout $end
$var wire 1 8" WideXor0~1_combout $end
$var wire 1 9" WideXor0~0_combout $end
$var wire 1 :" regS~20_combout $end
$var wire 1 ;" regS~22_combout $end
$var wire 1 <" Selector2~3_combout $end
$var wire 1 =" regval~q $end
$var wire 1 >" regdone~feeder_combout $end
$var wire 1 ?" regdone~q $end
$var wire 1 @" WideOr0~combout $end
$var wire 1 A" estado~4_combout $end
$var wire 1 B" estado~5_combout $end
$var wire 1 C" regA [31] $end
$var wire 1 D" regA [30] $end
$var wire 1 E" regA [29] $end
$var wire 1 F" regA [28] $end
$var wire 1 G" regA [27] $end
$var wire 1 H" regA [26] $end
$var wire 1 I" regA [25] $end
$var wire 1 J" regA [24] $end
$var wire 1 K" regA [23] $end
$var wire 1 L" regA [22] $end
$var wire 1 M" regA [21] $end
$var wire 1 N" regA [20] $end
$var wire 1 O" regA [19] $end
$var wire 1 P" regA [18] $end
$var wire 1 Q" regA [17] $end
$var wire 1 R" regA [16] $end
$var wire 1 S" regA [15] $end
$var wire 1 T" regA [14] $end
$var wire 1 U" regA [13] $end
$var wire 1 V" regA [12] $end
$var wire 1 W" regA [11] $end
$var wire 1 X" regA [10] $end
$var wire 1 Y" regA [9] $end
$var wire 1 Z" regA [8] $end
$var wire 1 [" regA [7] $end
$var wire 1 \" regA [6] $end
$var wire 1 ]" regA [5] $end
$var wire 1 ^" regA [4] $end
$var wire 1 _" regA [3] $end
$var wire 1 `" regA [2] $end
$var wire 1 a" regA [1] $end
$var wire 1 b" regA [0] $end
$var wire 1 c" regS [8] $end
$var wire 1 d" regS [7] $end
$var wire 1 e" regS [6] $end
$var wire 1 f" regS [5] $end
$var wire 1 g" regS [4] $end
$var wire 1 h" regS [3] $end
$var wire 1 i" regS [2] $end
$var wire 1 j" regS [1] $end
$var wire 1 k" regS [0] $end
$upscope $end
$upscope $end
$enddefinitions $end
#0
$dumpvars
b111001110101010010110000011110 !
0"
1#
0$
0D
0C
0B
0A
0@
0?
0>
0=
0<
0;
0:
09
08
07
06
05
04
03
02
01
00
0/
0.
0-
0,
0+
0*
0)
0(
0'
0&
0%
0M
0L
0K
0J
0I
0H
0G
0F
0E
0N
0Q
0P
0O
0R
xS
0T
1U
xV
1W
1X
1Y
0Z
0[
0\
0]
0^
0_
0`
0a
0b
0c
0d
0e
0f
0g
0h
0i
0j
0k
0l
0m
0n
0o
0p
0q
0r
0s
0t
0u
0v
0w
0x
0y
0z
0{
0|
0}
0~
0!!
0"!
0#!
0$!
0%!
0&!
0'!
0(!
0)!
0*!
0+!
1,!
0-!
0.!
0/!
00!
01!
02!
03!
04!
15!
16!
07!
08!
09!
0:!
0;!
0<!
0=!
0>!
1?!
0@!
1A!
1B!
0C!
0D!
0E!
0F!
0G!
1H!
0I!
1J!
1K!
0L!
0M!
0N!
0O!
0P!
0Q!
0R!
0S!
1T!
1U!
1V!
1W!
0X!
0Y!
1Z!
1[!
0\!
0]!
1^!
1_!
1`!
1a!
0b!
0c!
1d!
1e!
0f!
0g!
1h!
1i!
1j!
1k!
1l!
1m!
0n!
0o!
0p!
0q!
1r!
1s!
0t!
0u!
0v!
0w!
1x!
1y!
0z!
0{!
1|!
1}!
0~!
0!"
0""
0#"
0$"
0%"
0&"
0'"
0("
0)"
0*"
0+"
1,"
1-"
0."
0/"
00"
01"
02"
03"
04"
05"
06"
07"
08"
09"
0:"
0;"
0<"
0="
0>"
0?"
1@"
1A"
0B"
0b"
0a"
0`"
0_"
0^"
0]"
0\"
0["
0Z"
0Y"
0X"
0W"
0V"
0U"
0T"
0S"
0R"
0Q"
0P"
0O"
0N"
0M"
0L"
0K"
0J"
0I"
0H"
0G"
0F"
0E"
0D"
0C"
0k"
0j"
0i"
0h"
0g"
0f"
0e"
0d"
0c"
$end
#15000
1"
1*!
1+!
0S
#30000
0#
0"
05!
0*!
06!
0+!
1S
#45000
1"
1*!
1+!
0S
#60000
0"
0*!
0+!
1S
#70000
1$
1-!
0S
18!
14!
10!
#75000
1"
1*!
1+!
1S
19!
17!
1K"
1L"
1E"
1U"
1F"
1N"
1^"
1G"
1_"
1W"
1X"
1P"
1`"
1a"
1J"
1R"
0@"
13"
1z!
17"
1p!
15"
1f!
14"
1F!
1!!
1~
1'!
1u
1&!
1|
1l
1%!
1k
1s
1r
1z
1j
1i
1"!
1x
1-
1.
1'
17
1(
10
1@
1)
1A
19
1:
12
1B
1C
1,
14
16"
1{!
1q!
1g!
1G!
1e
1Q
#90000
0"
0*!
0+!
0S
#100000
0$
0-!
1S
1:!
08!
00!
1<"
1I!
#105000
1"
1*!
1+!
0S
1;!
09!
1="
1f"
1g"
1h"
1k"
0A"
1@"
0H!
1@!
0:!
1c
1_
1^
1]
1Z
1R
1H
1I
1J
1M
1;"
1."
1'"
0z!
0p!
0f!
1]!
0G!
0F!
1f
0e
1P
0Q
1/"
0{!
0g!
1G!
#120000
0"
0*!
0+!
1S
#135000
1"
1*!
1+!
0S
1<!
0;!
1c"
1d"
1e"
0f"
0h"
1i"
1E!
0@!
0@"
1H!
1b
1a
1`
0_
0]
1\
1E
1F
1G
0H
0J
1K
1:"
06"
0/"
0."
1{!
1g!
1\!
0;"
0'"
0q!
0]!
0G!
1e
1Q
1;"
1]!
#150000
0"
0*!
0+!
1S
#165000
1"
1*!
1+!
0S
1=!
0<!
0d"
0e"
1f"
0g"
1h"
0k"
1@"
1>"
0H!
1@!
1A"
0I!
0a
0`
1_
0^
1]
0Z
0F
0G
1H
0I
1J
0M
1B"
1I!
0;"
1."
1'"
1&"
1z!
1q!
1p!
1f!
1R!
1G!
1F!
0e
0f
1g
0Q
0P
1O
0'"
0{!
1S!
0G!
#180000
0"
0*!
0+!
1S
#195000
1"
1*!
1+!
0S
1>!
0=!
1?"
0c"
0f"
1g"
1j"
0-"
0}!
0y!
0s!
0m!
0k!
0i!
0e!
0a!
0_!
0[!
0W!
0U!
0K!
0I!
0B!
0?!
04!
10!
0@"
0>"
0<"
1H!
0E!
0@!
1d
0b
0_
1^
1[
1N
0E
0H
1I
1L
1I!
0:"
16"
1/"
0."
0&"
1{!
0\!
0R!
1;"
1'"
1G!
1e
1Q
0;"
0/"
0'"
0]!
0S!
#210000
0"
0*!
0+!
1S
#225000
1"
1*!
1+!
0S
0>!
07!
0?"
0="
0K"
0L"
0E"
0U"
0g"
0F"
0N"
0^"
0h"
0G"
0_"
0W"
0i"
0X"
0P"
0`"
0j"
0a"
0J"
0R"
1-"
1}!
1y!
1s!
1m!
1k!
1i!
1e!
1a!
1_!
1[!
1W!
1U!
1K!
0I!
1B!
1?!
00!
1@"
03"
0z!
07"
0p!
05"
0f!
04"
0F!
0d
0c
0!!
0~
0'!
0u
0^
0&!
0|
0l
0]
0%!
0k
0s
0\
0r
0z
0j
0[
0i
0"!
0x
0N
0R
0-
0.
0'
07
0I
0(
00
0@
0J
0)
0A
09
0K
0:
02
0B
0L
0C
0,
04
0B"
06"
0{!
0q!
0g!
0G!
0e
0g
0Q
0O
#240000
0"
0*!
0+!
1S
#255000
1"
1*!
1+!
0S
#270000
0"
0*!
0+!
1S
#285000
1"
1*!
1+!
0S
#300000
0"
0*!
0+!
1S
#315000
1"
1*!
1+!
0S
#330000
0"
0*!
0+!
1S
#345000
1"
1*!
1+!
0S
#360000
0"
0*!
0+!
1S
#375000
1"
1*!
1+!
0S
#390000
b101001110101010010110000011110 !
b101011110101010010110000011110 !
b101010110101010010110000011110 !
b101010100101010010110000011110 !
b101010101101010010110000011110 !
b101010101001010010110000011110 !
b101010101011010010110000011110 !
b101010101010010010110000011110 !
b101010101010110010110000011110 !
b101010101010100010110000011110 !
b101010101010101010110000011110 !
b101010101010101110110000011110 !
b101010101010101111110000011110 !
b101010101010101111010000011110 !
b101010101010101111011000011110 !
b101010101010101111011001011110 !
b101010101010101111011001111110 !
b101010101010101111011001101110 !
b101010101010101111011001101010 !
0"
0T!
0h!
1t!
1~!
1L!
0^!
1n!
1$"
1*"
0,!
1P!
0V!
1b!
0j!
1v!
0|!
0A!
1N!
0l!
0*!
0+!
1S
0U!
0i!
1u!
1!"
1M!
0_!
1o!
1%"
1+"
0?!
1Q!
0W!
1c!
0k!
1w!
0}!
0B!
1O!
0m!
#405000
1"
1*!
1+!
0S
#420000
0"
0*!
0+!
1S
#430000
1$
1-!
0S
18!
14!
10!
#435000
1"
1*!
1+!
1S
19!
17!
1K"
1S"
1T"
1\"
1E"
1M"
1]"
1U"
1V"
1G"
1O"
1_"
1X"
1Q"
1I"
1Y"
1a"
0@"
18"
1z!
1f!
1R!
1!!
1w
1v
1n
1'!
1}
1m
1u
1t
1%!
1{
1k
1r
1y
1#!
1q
1i
1-
15
16
1>
1'
1/
1?
17
18
1)
11
1A
1:
13
1+
1;
1C
1:"
1{!
1g!
1S!
1e
1Q
1;"
#450000
0$
0"
0-!
0*!
0+!
0S
1:!
08!
00!
1<"
1I!
#465000
1"
1*!
1+!
1S
1;!
09!
1="
1c"
1f"
1h"
1j"
0A"
1@"
0H!
1@!
0:!
1c
1b
1_
1]
1[
1R
1E
1H
1J
1L
0;"
1."
1f
0e
1P
0Q
1/"
#480000
0"
0*!
0+!
0S
#495000
1"
1*!
1+!
1S
1<!
0;!
0c"
1d"
1E!
0@!
0@"
1H!
0b
1a
0E
1F
0:"
0/"
0."
1&"
0z!
1p!
0f!
1\!
0R!
1;"
1e
1Q
0;"
1/"
1'"
1q!
0g!
1]!
#510000
0"
0*!
0+!
0S
#525000
1"
1*!
1+!
1S
1=!
0<!
1e"
1g"
0h"
1i"
1@"
1>"
0H!
1@!
1A"
0I!
1`
1^
0]
1\
1G
1I
0J
1K
1B"
1I!
1."
1z!
0q!
1f!
0]!
1R!
1F!
0e
0f
1g
0Q
0P
1O
0/"
1g!
#540000
0"
0*!
0+!
0S
#555000
1"
1*!
1+!
1S
1>!
0=!
1?"
0d"
0g"
1h"
0i"
0-"
0+"
0%"
0!"
0y!
0w!
0u!
0s!
0o!
0e!
0c!
0a!
0[!
0Q!
0O!
0M!
0K!
0I!
04!
10!
0@"
0>"
0<"
1H!
0E!
0@!
1d
0a
0^
1]
0\
1N
0F
0I
1J
0K
1I!
1:"
1/"
0."
0&"
0p!
0\!
0F!
1q!
1]!
1G!
1e
1Q
1;"
0/"
0'"
0q!
0]!
0G!
#570000
0"
0*!
0+!
0S
#585000
1"
1*!
1+!
1S
0>!
07!
0?"
0="
0K"
0S"
0e"
0T"
0\"
0f"
0E"
0M"
0]"
0U"
0V"
0h"
0G"
0O"
0_"
0X"
0j"
0Q"
0I"
0Y"
0a"
1-"
1+"
1%"
1!"
1y!
1w!
1u!
1s!
1o!
1e!
1c!
1a!
1[!
1Q!
1O!
1M!
1K!
0I!
00!
1@"
08"
0z!
0f!
0R!
0d
0c
0!!
0w
0`
0v
0n
0_
0'!
0}
0m
0u
0t
0]
0%!
0{
0k
0r
0[
0y
0#!
0q
0i
0N
0R
0-
05
0G
06
0>
0H
0'
0/
0?
07
08
0J
0)
01
0A
0:
0L
03
0+
0;
0C
0B"
0:"
0{!
0g!
0S!
0e
0g
0Q
0O
0;"
#600000
0"
0*!
0+!
0S
#615000
1"
1*!
1+!
1S
#630000
0"
0*!
0+!
0S
#645000
1"
1*!
1+!
1S
#660000
0"
0*!
0+!
0S
#675000
1"
1*!
1+!
1S
#690000
0"
0*!
0+!
0S
#705000
1"
1*!
1+!
1S
#720000
0"
0*!
0+!
0S
#735000
1"
1*!
1+!
1S
#750000
0"
0*!
0+!
0S
#765000
1"
1*!
1+!
1S
#780000
0"
0*!
0+!
0S
#795000
1"
1*!
1+!
1S
#810000
0"
0*!
0+!
0S
#825000
1"
1*!
1+!
1S
#840000
0"
0*!
0+!
0S
#855000
1"
1*!
1+!
1S
#870000
0"
0*!
0+!
0S
#885000
1"
1*!
1+!
1S
#900000
0"
0*!
0+!
0S
#915000
1"
1*!
1+!
1S
#930000
0"
0*!
0+!
0S
#945000
1"
1*!
1+!
1S
#960000
0"
0*!
0+!
0S
#975000
1"
1*!
1+!
1S
#990000
0"
0*!
0+!
0S
