quartus/primeiro/simulation/qsim/primeiro.msim.vcd
$comment
	File created using the following command:
		vcd file primeiro.msim.vcd -direction
$end
$date
	Tue Nov  5 11:28:39 2024
$end
$version
	ModelSim Version 10.1d
$end
$timescale
	1ps
$end
$scope module primeiro_vlg_vec_tst $end
$var reg 1 ! a $end
$var reg 1 " b $end
$var reg 1 # c $end
$var wire 1 $ s $end
$var wire 1 % y $end
$var wire 1 & sampler $end
$scope module i1 $end
$var wire 1 ' gnd $end
$var wire 1 ( vcc $end
$var wire 1 ) unknown $end
$var tri1 1 * devclrn $end
$var tri1 1 + devpor $end
$var tri1 1 , devoe $end
$var wire 1 - c~input_o $end
$var wire 1 . s~output_o $end
$var wire 1 / y~output_o $end
$var wire 1 0 a~input_o $end
$var wire 1 1 b~input_o $end
$upscope $end
$upscope $end
$enddefinitions $end
#0
$dumpvars
0!
x"
x#
1$
x%
x&
0'
1(
x)
1*
1+
1,
x-
1.
x/
00
x1
$end
#50000
1!
10
0&
0.
0$
#100000
0!
00
1&
1.
1$
#150000
1!
10
0&
0.
0$
#200000
0!
00
1&
1.
1$
#250000
1!
10
0&
0.
0$
#300000
0!
00
1&
1.
1$
#350000
1!
10
0&
0.
0$
#400000
0!
00
1&
1.
1$
#450000
1!
10
0&
0.
0$
#500000
0!
00
1&
1.
1$
#550000
1!
10
0&
0.
0$
#600000
0!
00
1&
1.
1$
#650000
1!
10
0&
0.
0$
#700000
0!
00
1&
1.
1$
#750000
1!
10
0&
0.
0$
#800000
0!
00
1&
1.
1$
#850000
1!
10
0&
0.
0$
#900000
0!
00
1&
1.
1$
#950000
1!
10
0&
0.
0$
