quartus/Verilog/exemplo_aula_25_11/simulation/qsim/ex1.msim.vcd
$comment
	File created using the following command:
		vcd file ex1.msim.vcd -direction
$end
$date
	Mon Nov 25 14:12:48 2024
$end
$version
	ModelSim Version 10.1d
$end
$timescale
	1ps
$end
$scope module ex1_vlg_vec_tst $end
$var reg 4 ! a [3:0] $end
$var reg 4 " b [3:0] $end
$var wire 1 # s [3] $end
$var wire 1 $ s [2] $end
$var wire 1 % s [1] $end
$var wire 1 & s [0] $end
$var wire 1 ' sampler $end
$scope module i1 $end
$var wire 1 ( gnd $end
$var wire 1 ) vcc $end
$var wire 1 * unknown $end
$var tri1 1 + devclrn $end
$var tri1 1 , devpor $end
$var tri1 1 - devoe $end
$var wire 1 . s[0]~output_o $end
$var wire 1 / s[1]~output_o $end
$var wire 1 0 s[2]~output_o $end
$var wire 1 1 s[3]~output_o $end
$var wire 1 2 a[2]~input_o $end
$var wire 1 3 a[0]~input_o $end
$var wire 1 4 b[1]~input_o $end
$var wire 1 5 b[0]~input_o $end
$var wire 1 6 a[1]~input_o $end
$var wire 1 7 LessThan0~0_combout $end
$var wire 1 8 b[2]~input_o $end
$var wire 1 9 LessThan0~1_combout $end
$var wire 1 : a[3]~input_o $end
$var wire 1 ; b[3]~input_o $end
$var wire 1 < LessThan0~2_combout $end
$var wire 1 = Add1~0_combout $end
$var wire 1 > Add0~0_combout $end
$var wire 1 ? Add1~2_combout $end
$var wire 1 @ Add1~1 $end
$var wire 1 A Add1~3_combout $end
$var wire 1 B Add0~1 $end
$var wire 1 C Add0~2_combout $end
$var wire 1 D Add1~5_combout $end
$var wire 1 E Add0~3 $end
$var wire 1 F Add0~4_combout $end
$var wire 1 G Add1~4 $end
$var wire 1 H Add1~6_combout $end
$var wire 1 I Add1~8_combout $end
$var wire 1 J Add1~7 $end
$var wire 1 K Add1~9_combout $end
$var wire 1 L Add0~5 $end
$var wire 1 M Add0~6_combout $end
$var wire 1 N Add1~11_combout $end
$upscope $end
$upscope $end
$enddefinitions $end
#0
$dumpvars
b110 !
b1111 "
1&
0%
0$
1#
x'
0(
1)
x*
1+
1,
1-
1.
0/
00
11
12
03
14
15
16
17
18
19
0:
1;
1<
1=
1>
1?
0@
1A
1B
0C
0D
0E
0F
1G
1H
0I
0J
0K
1L
1M
1N
$end
#100000
b1110 !
b1010 !
b1000 !
b111 "
b101 "
04
0;
06
02
1:
0'
0<
0H
1F
0N
1D
01
1/
0#
1%
#200000
b1 "
08
1'
1H
0F
1I
10
1$
#300000
b1001 !
b1 !
b101 !
b1001 "
1;
13
12
0:
0'
1<
0>
1@
0=
07
1J
0H
0L
1F
09
0G
0A
1K
0M
1N
0D
0?
1H
11
0/
0.
1#
0%
0&
0N
01
0#
#400000
b1000 "
b1100 "
b100 !
b0 !
b100 "
03
02
05
18
0;
1'
0J
1L
19
1M
0K
0<
1K
0M
1<
#500000
b110 "
b111 "
b1111 "
15
14
1;
0'
1>
0@
1=
17
1C
1G
1A
1M
0K
0A
0H
1?
1D
1N
1.
1/
11
1&
1%
1#
#600000
b1011 "
b1001 "
b1000 "
b0 "
05
04
08
0;
1'
0>
1@
0=
07
0C
1A
1H
0F
0M
1K
0G
0A
09
0?
0D
0I
0N
1J
0H
0<
0.
0/
00
01
0&
0%
0$
0#
0K
1N
11
1#
0N
01
0#
#700000
b10 !
b1010 !
b1011 !
b1111 !
13
16
12
1:
0'
0B
1>
1=
1E
1C
1A
1H
0L
1F
1M
1K
0C
0F
0M
1?
1D
1I
1N
1.
1/
10
11
1&
1%
1$
1#
#800000
b100 "
b111 !
b110 !
b10 !
03
02
0:
18
1'
1B
0>
0=
0J
1L
19
1M
0K
1C
1K
0M
1<
0?
0N
0.
01
0&
0#
0I
00
0$
#900000
b1100 "
b1010 !
b1011 !
b1111 !
13
12
1:
1;
0'
0B
1>
1=
1J
0H
0L
1F
09
0C
0K
1M
0<
1?
1I
1.
10
1&
1$
0I
00
0$
