quartus/Schematic/mux2x1/simulation/qsim/mux2x1.msim.vcd
$comment
	File created using the following command:
		vcd file mux2x1.msim.vcd -direction
$end
$date
	Wed Nov  6 11:02:54 2024
$end
$version
	ModelSim Version 10.1d
$end
$timescale
	1ps
$end
$scope module mux2x1_vlg_vec_tst $end
$var reg 1 ! a $end
$var reg 1 " b $end
$var reg 1 # sel $end
$var wire 1 $ s $end
$var wire 1 % sampler $end
$scope module i1 $end
$var wire 1 & gnd $end
$var wire 1 ' vcc $end
$var wire 1 ( unknown $end
$var tri1 1 ) devclrn $end
$var tri1 1 * devpor $end
$var tri1 1 + devoe $end
$var wire 1 , s~output_o $end
$var wire 1 - b~input_o $end
$var wire 1 . sel~input_o $end
$var wire 1 / a~input_o $end
$var wire 1 0 inst2~0_combout $end
$upscope $end
$upscope $end
$enddefinitions $end
#0
$dumpvars
0!
0"
0#
0$
x%
0&
1'
x(
1)
1*
1+
0,
0-
0.
0/
00
$end
#5000
1"
1-
0%
#10000
0"
0-
1%
#15000
1"
1-
0%
#20000
0"
0-
1%
#25000
1!
1"
1/
1-
0%
10
1,
1$
#30000
0"
0-
1%
#35000
1"
1-
0%
#40000
0"
0-
1%
#45000
1"
1-
0%
#50000
0!
0"
0/
0-
1%
00
0,
0$
#55000
1"
1-
0%
#60000
0"
0-
1%
#65000
1"
1-
0%
#70000
0"
0-
1%
#75000
1!
1"
1/
1-
0%
10
1,
1$
#80000
0"
0-
1%
#85000
1"
1-
0%
#90000
0"
0-
1%
#95000
1"
1-
0%
#100000
0!
0"
0/
0-
1%
00
0,
0$
#105000
1"
1-
0%
#110000
0"
0-
1%
#115000
1"
1-
0%
#120000
0"
0-
1%
#125000
1!
1"
1/
1-
0%
10
1,
1$
#130000
0"
0-
1%
#135000
1"
1-
0%
#140000
0"
0-
1%
#145000
1"
1-
0%
#150000
0!
0"
0/
0-
1%
00
0,
0$
#155000
1"
1-
0%
#160000
0"
0-
1%
#165000
1"
1-
0%
#170000
0"
0-
1%
#175000
1!
1"
1/
1-
0%
10
1,
1$
#180000
0"
0-
1%
#185000
1"
1-
0%
#190000
0"
0-
1%
#195000
1"
1-
0%
#200000
1#
0!
0"
1.
0/
0-
1%
00
0,
0$
#205000
1"
1-
0%
10
1,
1$
#210000
0"
0-
1%
00
0,
0$
#215000
1"
1-
0%
10
1,
1$
#220000
0"
0-
1%
00
0,
0$
#225000
1!
1"
1/
1-
0%
10
1,
1$
#230000
0"
0-
1%
00
0,
0$
#235000
1"
1-
0%
10
1,
1$
#240000
0"
0-
1%
00
0,
0$
#245000
1"
1-
0%
10
1,
1$
#250000
0!
0"
0/
0-
1%
00
0,
0$
#255000
1"
1-
0%
10
1,
1$
#260000
0"
0-
1%
00
0,
0$
#265000
1"
1-
0%
10
1,
1$
#270000
0"
0-
1%
00
0,
0$
#275000
1!
1"
1/
1-
0%
10
1,
1$
#280000
0"
0-
1%
00
0,
0$
#285000
1"
1-
0%
10
1,
1$
#290000
0"
0-
1%
00
0,
0$
#295000
1"
1-
0%
10
1,
1$
#300000
0!
0"
0/
0-
1%
00
0,
0$
#305000
1"
1-
0%
10
1,
1$
#310000
0"
0-
1%
00
0,
0$
#315000
1"
1-
0%
10
1,
1$
#320000
0"
0-
1%
00
0,
0$
#325000
1!
1"
1/
1-
0%
10
1,
1$
#330000
0"
0-
1%
00
0,
0$
#335000
1"
1-
0%
10
1,
1$
#340000
0"
0-
1%
00
0,
0$
#345000
1"
1-
0%
10
1,
1$
#350000
0!
0"
0/
0-
1%
00
0,
0$
#355000
1"
1-
0%
10
1,
1$
#360000
0"
0-
1%
00
0,
0$
#365000
1"
1-
0%
10
1,
1$
#370000
0"
0-
1%
00
0,
0$
#375000
1!
1"
1/
1-
0%
10
1,
1$
#380000
0"
0-
1%
00
0,
0$
#385000
1"
1-
0%
10
1,
1$
#390000
0"
0-
1%
00
0,
0$
#395000
1"
1-
0%
10
1,
1$
#400000
0#
0!
0"
0.
0/
0-
1%
00
0,
0$
#405000
1"
1-
0%
#410000
0"
0-
1%
#415000
1"
1-
0%
#420000
0"
0-
1%
#425000
1!
1"
1/
1-
0%
10
1,
1$
#430000
0"
0-
1%
#435000
1"
1-
0%
#440000
0"
0-
1%
#445000
1"
1-
0%
#450000
0!
0"
0/
0-
1%
00
0,
0$
#455000
1"
1-
0%
#460000
0"
0-
1%
#465000
1"
1-
0%
#470000
0"
0-
1%
#475000
1!
1"
1/
1-
0%
10
1,
1$
#480000
0"
0-
1%
#485000
1"
1-
0%
#490000
0"
0-
1%
#495000
1"
1-
0%
#500000
0!
0"
0/
0-
1%
00
0,
0$
#505000
1"
1-
0%
#510000
0"
0-
1%
#515000
1"
1-
0%
#520000
0"
0-
1%
#525000
1!
1"
1/
1-
0%
10
1,
1$
#530000
0"
0-
1%
#535000
1"
1-
0%
#540000
0"
0-
1%
#545000
1"
1-
0%
#550000
0!
0"
0/
0-
1%
00
0,
0$
#555000
1"
1-
0%
#560000
0"
0-
1%
#565000
1"
1-
0%
#570000
0"
0-
1%
#575000
1!
1"
1/
1-
0%
10
1,
1$
#580000
0"
0-
1%
#585000
1"
1-
0%
#590000
0"
0-
1%
#595000
1"
1-
0%
#600000
1#
0!
0"
1.
0/
0-
1%
00
0,
0$
#605000
1"
1-
0%
10
1,
1$
#610000
0"
0-
1%
00
0,
0$
#615000
1"
1-
0%
10
1,
1$
#620000
0"
0-
1%
00
0,
0$
#625000
1!
1"
1/
1-
0%
10
1,
1$
#630000
0"
0-
1%
00
0,
0$
#635000
1"
1-
0%
10
1,
1$
#640000
0"
0-
1%
00
0,
0$
#645000
1"
1-
0%
10
1,
1$
#650000
0!
0"
0/
0-
1%
00
0,
0$
#655000
1"
1-
0%
10
1,
1$
#660000
0"
0-
1%
00
0,
0$
#665000
1"
1-
0%
10
1,
1$
#670000
0"
0-
1%
00
0,
0$
#675000
1!
1"
1/
1-
0%
10
1,
1$
#680000
0"
0-
1%
00
0,
0$
#685000
1"
1-
0%
10
1,
1$
#690000
0"
0-
1%
00
0,
0$
#695000
1"
1-
0%
10
1,
1$
#700000
0!
0"
0/
0-
1%
00
0,
0$
#705000
1"
1-
0%
10
1,
1$
#710000
0"
0-
1%
00
0,
0$
#715000
1"
1-
0%
10
1,
1$
#720000
0"
0-
1%
00
0,
0$
#725000
1!
1"
1/
1-
0%
10
1,
1$
#730000
0"
0-
1%
00
0,
0$
#735000
1"
1-
0%
10
1,
1$
#740000
0"
0-
1%
00
0,
0$
#745000
1"
1-
0%
10
1,
1$
#750000
0!
0"
0/
0-
1%
00
0,
0$
#755000
1"
1-
0%
10
1,
1$
#760000
0"
0-
1%
00
0,
0$
#765000
1"
1-
0%
10
1,
1$
#770000
0"
0-
1%
00
0,
0$
#775000
1!
1"
1/
1-
0%
10
1,
1$
#780000
0"
0-
1%
00
0,
0$
#785000
1"
1-
0%
10
1,
1$
#790000
0"
0-
1%
00
0,
0$
#795000
1"
1-
0%
10
1,
1$
#800000
0#
0!
0"
0.
0/
0-
1%
00
0,
0$
#805000
1"
1-
0%
#810000
0"
0-
1%
#815000
1"
1-
0%
#820000
0"
0-
1%
#825000
1!
1"
1/
1-
0%
10
1,
1$
#830000
0"
0-
1%
#835000
1"
1-
0%
#840000
0"
0-
1%
#845000
1"
1-
0%
#850000
0!
0"
0/
0-
1%
00
0,
0$
#855000
1"
1-
0%
#860000
0"
0-
1%
#865000
1"
1-
0%
#870000
0"
0-
1%
#875000
1!
1"
1/
1-
0%
10
1,
1$
#880000
0"
0-
1%
#885000
1"
1-
0%
#890000
0"
0-
1%
#895000
1"
1-
0%
#900000
0!
0"
0/
0-
1%
00
0,
0$
#905000
1"
1-
0%
#910000
0"
0-
1%
#915000
1"
1-
0%
#920000
0"
0-
1%
#925000
1!
1"
1/
1-
0%
10
1,
1$
#930000
0"
0-
1%
#935000
1"
1-
0%
#940000
0"
0-
1%
#945000
1"
1-
0%
#950000
0!
0"
0/
0-
1%
00
0,
0$
#955000
1"
1-
0%
#960000
0"
0-
1%
#965000
1"
1-
0%
#970000
0"
0-
1%
#975000
1!
1"
1/
1-
0%
10
1,
1$
#980000
0"
0-
1%
#985000
1"
1-
0%
#990000
0"
0-
1%
#995000
1"
1-
0%
