quartus/Verilog/SPI/simulation/qsim/simple_spi.vcd
$date
	Thu Dec  5 13:46:12 2024
$end
$version
	ModelSim Version 10.1d
$end
$timescale
	1ps
$end
$scope module tb_spi_mode0 $end
$scope module master $end
$var parameter 2 ! START $end
$var parameter 2 " IDLE $end
$var parameter 2 # INT $end
$var parameter 32 $ REG_WIDTH $end
$var parameter 32 % COUNTER_WIDTH $end
$var parameter 32 & TRANS_SIZE $end
$var wire 1 ' rstn $end
$var wire 1 ( sys_clk $end
$var wire 1 ) t_start $end
$var wire 1 * data_in [7] $end
$var wire 1 + data_in [6] $end
$var wire 1 , data_in [5] $end
$var wire 1 - data_in [4] $end
$var wire 1 . data_in [3] $end
$var wire 1 / data_in [2] $end
$var wire 1 0 data_in [1] $end
$var wire 1 1 data_in [0] $end
$var wire 1 2 t_size [3] $end
$var wire 1 3 t_size [2] $end
$var wire 1 4 t_size [1] $end
$var wire 1 5 t_size [0] $end
$var wire 1 6 miso $end
$var wire 1 7 mosi $end
$var reg 1 8 spi_clk $end
$var reg 1 9 cs $end
$var reg 8 : shift_reg [7:0] $end
$var reg 4 ; count [3:0] $end
$var reg 1 < flag $end
$var reg 1 = loadReg $end
$var reg 2 > state [1:0] $end
$var reg 2 ? next_state [1:0] $end
$upscope $end
$upscope $end
$enddefinitions $end
#0
$dumpvars
08
19
b0 :
bx ;
0<
0=
b1 >
b1 ?
b0 !
b1 "
b10 #
b1000 $
b11 %
b1000 &
x6
07
0'
05
04
03
12
01
00
0/
0.
0-
0,
0+
0*
0)
0(
$end
#1000
1(
#2000
0(
#3000
1(
#4000
11
10
1.
1,
1*
1'
0(
#5000
1)
b10 ?
1(
b10 >
b0 ?
09
1=
18
06
#6000
0(
08
b10101011 :
17
#7000
0)
1(
18
b0 >
0=
#8000
0(
08
b1010110 :
07
#9000
1(
18
#10000
0(
08
b10101100 :
17
#11000
1(
18
#12000
0(
08
b1011000 :
07
#13000
1(
18
#14000
0(
08
b10110000 :
17
#15000
1(
18
#16000
0(
08
b1100000 :
07
#17000
1(
18
#18000
0(
08
b11000000 :
17
#19000
1(
18
#20000
0(
08
b10000000 :
#21000
1(
18
#22000
0(
08
b0 :
07
#23000
1(
18
16
#24000
0(
08
b1 :
#25000
1(
18
06
#26000
0(
08
b10 :
#27000
1(
18
16
#28000
0(
08
b100 :
b101 :
#29000
1(
18
06
#30000
0(
08
b1010 :
#31000
1(
18
16
#32000
0(
08
b10100 :
b10101 :
#33000
1(
18
06
#34000
0(
08
b101010 :
#35000
1(
18
16
#36000
0(
08
b1010100 :
b1010101 :
#37000
1(
18
#38000
0(
08
b10101010 :
b10101011 :
17
#39000
1(
18
06
#40000
0(
08
b1010110 :
07
#41000
0'
b1 >
b0 :
1(
18
19
b1 ?
08
#42000
0(
#43000
1(
#44000
0(
#45000
1'
1(
#46000
00
1/
0,
1+
0(
#47000
1)
b10 ?
1(
b10 >
b0 ?
09
1=
18
#48000
0(
08
b11001101 :
17
#49000
0)
1(
18
b0 >
0=
#50000
0(
08
b10011010 :
#51000
1(
18
#52000
0(
08
b110100 :
07
#53000
1(
18
#54000
0(
08
b1101000 :
#55000
1(
18
#56000
0(
08
b11010000 :
17
#57000
1(
18
#58000
0(
08
b10100000 :
#59000
1(
18
#60000
0(
08
b1000000 :
07
#61000
1(
18
#62000
0(
08
b10000000 :
17
#63000
1(
18
#64000
0(
08
b0 :
07
#65000
1(
18
16
#66000
0(
08
b1 :
#67000
1(
18
#68000
0(
08
b10 :
b11 :
#69000
1(
18
06
#70000
0(
08
b110 :
#71000
1(
18
#72000
0(
08
b1100 :
#73000
1(
18
16
#74000
0(
08
b11000 :
b11001 :
#75000
1(
18
#76000
0(
08
b110010 :
b110011 :
#77000
1(
18
06
#78000
0(
08
b1100110 :
#79000
1(
18
16
#80000
0(
08
b11001100 :
b11001101 :
17
#81000
1(
18
06
#82000
0(
08
b10011010 :
#83000
0'
b1 >
b0 :
07
1(
18
19
b1 ?
08
#84000
0(
#85000
1(
#86000
0(
#87000
1'
1(
#88000
10
0.
1,
0*
0(
#89000
1)
b10 ?
1(
b10 >
b0 ?
09
1=
18
#90000
0(
08
b1100111 :
#91000
0)
1(
18
b0 >
0=
#92000
0(
08
b11001110 :
17
#93000
1(
18
#94000
0(
08
b10011100 :
#95000
1(
18
#96000
0(
08
b111000 :
07
#97000
1(
18
#98000
0(
08
b1110000 :
#99000
1(
18
#100000
0(
08
b11100000 :
17
#101000
1(
18
#102000
0(
08
b11000000 :
#103000
1(
18
#104000
0(
08
b10000000 :
#105000
1(
18
#106000
0(
08
b0 :
07
#107000
1(
18
#108000
0(
08
#109000
1(
18
16
#110000
0(
08
b1 :
#111000
1(
18
#112000
0(
08
b10 :
b11 :
#113000
1(
18
06
#114000
0(
08
b110 :
#115000
1(
18
#116000
0(
08
b1100 :
#117000
1(
18
16
#118000
0(
08
b11000 :
b11001 :
#119000
1(
18
#120000
0(
08
b110010 :
b110011 :
#121000
1(
18
#122000
0(
08
b1100110 :
b1100111 :
#123000
1(
18
06
#124000
0(
08
b11001110 :
17
#125000
1(
18
#126000
0(
08
b10011100 :
#127000
1(
18
#128000
0(
08
b111000 :
07
