quartus/Verilog/ContadorDe1/simulation/qsim/ContadorDe1.msim.vcd
$comment
	File created using the following command:
		vcd file ContadorDe1.msim.vcd -direction
$end
$date
	Mon Dec  2 11:50:48 2024
$end
$version
	ModelSim Version 10.1d
$end
$timescale
	1ps
$end
$scope module ContadorDe1_vlg_vec_tst $end
$var reg 16 ! A [15:0] $end
$var reg 1 " clk $end
$var reg 1 # reset $end
$var reg 1 $ start $end
$var wire 1 % pronto $end
$var wire 1 & resultado [4] $end
$var wire 1 ' resultado [3] $end
$var wire 1 ( resultado [2] $end
$var wire 1 ) resultado [1] $end
$var wire 1 * resultado [0] $end
$var wire 1 + sampler $end
$scope module i1 $end
$var wire 1 , gnd $end
$var wire 1 - vcc $end
$var wire 1 . unknown $end
$var tri1 1 / devclrn $end
$var tri1 1 0 devpor $end
$var tri1 1 1 devoe $end
$var wire 1 2 resultado[0]~output_o $end
$var wire 1 3 resultado[1]~output_o $end
$var wire 1 4 resultado[2]~output_o $end
$var wire 1 5 resultado[3]~output_o $end
$var wire 1 6 resultado[4]~output_o $end
$var wire 1 7 pronto~output_o $end
$var wire 1 8 clk~input_o $end
$var wire 1 9 clk~inputclkctrl_outclk $end
$var wire 1 : start~input_o $end
$var wire 1 ; parte_controle|Selector0~0_combout $end
$var wire 1 < reset~input_o $end
$var wire 1 = reset~inputclkctrl_outclk $end
$var wire 1 > parte_controle|current_state.S1~q $end
$var wire 1 ? A[2]~input_o $end
$var wire 1 @ A[3]~input_o $end
$var wire 1 A A[4]~input_o $end
$var wire 1 B A[5]~input_o $end
$var wire 1 C A[6]~input_o $end
$var wire 1 D A[7]~input_o $end
$var wire 1 E A[9]~input_o $end
$var wire 1 F A[10]~input_o $end
$var wire 1 G A[11]~input_o $end
$var wire 1 H A[12]~input_o $end
$var wire 1 I A[13]~input_o $end
$var wire 1 J A[15]~input_o $end
$var wire 1 K parte_operativa|regA~2_combout $end
$var wire 1 L parte_operativa|regA~3_combout $end
$var wire 1 M A[14]~input_o $end
$var wire 1 N parte_operativa|regA~4_combout $end
$var wire 1 O parte_operativa|regA[0]~1_combout $end
$var wire 1 P parte_operativa|regA~5_combout $end
$var wire 1 Q parte_operativa|regA~6_combout $end
$var wire 1 R parte_operativa|regA~7_combout $end
$var wire 1 S parte_operativa|regA~8_combout $end
$var wire 1 T parte_operativa|regA~9_combout $end
$var wire 1 U A[8]~input_o $end
$var wire 1 V parte_operativa|regA~10_combout $end
$var wire 1 W parte_operativa|regA~11_combout $end
$var wire 1 X parte_operativa|regA~12_combout $end
$var wire 1 Y parte_operativa|regA~13_combout $end
$var wire 1 Z parte_operativa|regA~14_combout $end
$var wire 1 [ parte_operativa|regA~15_combout $end
$var wire 1 \ parte_operativa|regA~16_combout $end
$var wire 1 ] A[1]~input_o $end
$var wire 1 ^ parte_operativa|regA~17_combout $end
$var wire 1 _ A[0]~input_o $end
$var wire 1 ` parte_operativa|regA~0_combout $end
$var wire 1 a parte_operativa|WideNor0~3_combout $end
$var wire 1 b parte_operativa|WideNor0~2_combout $end
$var wire 1 c parte_operativa|WideNor0~1_combout $end
$var wire 1 d parte_operativa|WideNor0~0_combout $end
$var wire 1 e parte_operativa|WideNor0~4_combout $end
$var wire 1 f parte_controle|Selector1~0_combout $end
$var wire 1 g parte_controle|current_state.S2~q $end
$var wire 1 h parte_operativa|acc[0]~4_combout $end
$var wire 1 i parte_operativa|always1~0_combout $end
$var wire 1 j parte_operativa|acc[1]~5_combout $end
$var wire 1 k parte_controle|IncB~0_combout $end
$var wire 1 l parte_operativa|acc[1]~6 $end
$var wire 1 m parte_operativa|acc[2]~7_combout $end
$var wire 1 n parte_operativa|acc[2]~8 $end
$var wire 1 o parte_operativa|acc[3]~9_combout $end
$var wire 1 p parte_operativa|acc[3]~10 $end
$var wire 1 q parte_operativa|acc[4]~11_combout $end
$var wire 1 r parte_controle|Selector2~0_combout $end
$var wire 1 s parte_controle|current_state.S3~q $end
$var wire 1 t parte_operativa|regA [15] $end
$var wire 1 u parte_operativa|regA [14] $end
$var wire 1 v parte_operativa|regA [13] $end
$var wire 1 w parte_operativa|regA [12] $end
$var wire 1 x parte_operativa|regA [11] $end
$var wire 1 y parte_operativa|regA [10] $end
$var wire 1 z parte_operativa|regA [9] $end
$var wire 1 { parte_operativa|regA [8] $end
$var wire 1 | parte_operativa|regA [7] $end
$var wire 1 } parte_operativa|regA [6] $end
$var wire 1 ~ parte_operativa|regA [5] $end
$var wire 1 !! parte_operativa|regA [4] $end
$var wire 1 "! parte_operativa|regA [3] $end
$var wire 1 #! parte_operativa|regA [2] $end
$var wire 1 $! parte_operativa|regA [1] $end
$var wire 1 %! parte_operativa|regA [0] $end
$var wire 1 &! parte_operativa|acc [4] $end
$var wire 1 '! parte_operativa|acc [3] $end
$var wire 1 (! parte_operativa|acc [2] $end
$var wire 1 )! parte_operativa|acc [1] $end
$var wire 1 *! parte_operativa|acc [0] $end
$upscope $end
$upscope $end
$enddefinitions $end
#0
$dumpvars
b1001100011000010 !
0"
1#
0$
0%
0*
0)
0(
0'
0&
x+
0,
1-
x.
1/
10
11
02
03
04
05
06
07
08
09
0:
0;
1<
1=
0>
0?
0@
0A
0B
1C
1D
0E
0F
1G
1H
0I
1J
0K
1L
0M
0N
1O
0P
1Q
1R
0S
0T
0U
0V
1W
1X
0Y
0Z
0[
0\
1]
1^
0_
0`
0a
0b
0c
0d
0e
0f
0g
0h
1i
0j
0k
0l
0m
1n
0o
0p
0q
0r
0s
0%!
0$!
0#!
0"!
0!!
0~
0}
0|
0{
0z
0y
0x
0w
0v
0u
0t
0*!
0)!
0(!
0'!
0&!
$end
#5000
1"
18
19
0+
#10000
0"
08
09
1+
#15000
1"
18
19
0+
#20000
0"
08
09
1+
#25000
1"
18
19
0+
#30000
0"
08
09
1+
#35000
1"
18
19
0+
#40000
0"
08
09
1+
#45000
1"
18
19
0+
#50000
0#
0"
0<
08
0=
09
1+
#55000
1"
18
19
0+
1$!
1}
1|
1x
1w
1t
1a
1b
1c
1d
1e
#60000
0"
08
09
1+
#65000
1"
18
19
0+
#70000
1$
0"
1:
08
09
1+
1f
1`
0^
1Y
0W
1S
0Q
0O
1N
0L
1K
1;
1L
#75000
1"
18
19
0+
1g
1>
1O
0K
0i
0L
#80000
0"
08
09
1+
#85000
1"
18
19
0+
1%!
0$!
1~
0|
1y
0w
1u
0t
1k
1h
0`
1Z
0X
1T
0R
1P
0N
#90000
0"
08
09
1+
#95000
1"
18
19
0+
0%!
1!!
0}
1z
0x
1v
0u
1*!
0k
0a
1[
0Y
1V
0S
1Q
0P
1j
12
1*
#100000
0"
08
09
1+
#105000
1"
18
19
0+
1"!
0~
1{
0y
1w
0v
1a
1\
0Z
1W
0T
1R
0Q
#110000
0$
0"
0:
08
09
1+
#115000
1"
18
19
0+
1#!
0!!
1|
0z
1x
0w
1^
0[
1X
0V
1S
0d
0R
#120000
0"
08
09
1+
#125000
1"
18
19
0+
1$!
0"!
1}
0{
1y
0x
1`
0\
1Y
0W
1T
0S
#130000
0"
08
09
1+
#135000
1"
18
19
0+
1%!
0#!
1~
0|
1z
0y
1k
0h
0^
1Z
0X
1V
0T
#140000
0"
08
09
1+
#145000
1"
18
19
0+
0$!
1!!
0}
1{
0z
1)!
0*!
0`
1[
0Y
1W
0V
1h
13
02
1)
0*
#150000
0"
08
09
1+
#155000
1"
18
19
0+
0%!
1"!
0~
1|
0{
1*!
0k
1\
0Z
1X
0c
0W
1l
0j
12
1*
1m
#160000
0"
08
09
1+
#165000
1"
18
19
0+
1#!
0!!
1}
0|
1^
0[
1Y
0X
#170000
0"
08
09
1+
#175000
1"
18
19
0+
1$!
0"!
1~
0}
1`
0\
1Z
0Y
#180000
0"
08
09
1+
#185000
1"
18
19
0+
1%!
0#!
1!!
0~
1k
0h
0^
1[
0Z
#190000
0"
08
09
1+
#195000
1"
18
19
0+
0$!
1"!
0!!
1(!
0)!
0*!
0`
1\
0b
0[
0n
0m
0l
1h
14
03
02
1(
0)
0*
1o
1n
1m
0o
#200000
0"
08
09
1+
#205000
1"
18
19
0+
0%!
1#!
0"!
1*!
0k
1^
0\
1j
12
1*
#210000
0"
08
09
1+
#215000
1"
18
19
0+
1$!
0#!
1`
0^
#220000
0"
08
09
1+
#225000
1"
18
19
0+
1%!
0$!
1k
0h
0`
#230000
0"
08
09
1+
#235000
1"
18
19
0+
0%!
1)!
0*!
0k
0a
13
02
1)
0*
0e
1r
0f
#240000
0"
08
09
1+
#245000
1"
18
19
0+
0g
1s
0r
0O
0;
17
1%
#250000
0"
08
09
1+
#255000
1"
18
19
0+
0>
0s
1i
1^
1X
1W
1R
1Q
1O
1L
07
0%
0)!
0(!
0j
0m
03
04
0)
0(
#260000
0"
08
09
1+
#265000
1"
18
19
0+
1$!
1}
1|
1x
1w
1t
1a
1b
1c
1d
1e
#270000
0"
08
09
1+
#275000
1"
18
19
0+
#280000
0"
08
09
1+
#285000
1"
18
19
0+
#290000
0"
08
09
1+
#295000
1"
18
19
0+
#300000
b1100011000010 !
b100011000010 !
b11000010 !
b1000010 !
b10 !
b0 !
0"
0]
0C
0D
0G
0H
0J
08
09
1+
0^
0X
0W
0R
0Q
0L
#305000
1"
18
19
0+
0$!
0}
0|
0x
0w
0t
0a
0b
0c
0d
0e
#310000
0"
08
09
1+
#315000
1"
18
19
0+
#320000
1$
0"
1:
08
09
1+
1f
0O
1;
#325000
1"
18
19
0+
1g
1>
1r
0f
1O
0i
#330000
0"
08
09
1+
#335000
1"
18
19
0+
0g
1s
0O
17
1%
#340000
0"
08
09
1+
#345000
1"
18
19
0+
#350000
0"
08
09
1+
#355000
1"
18
19
0+
#360000
0$
0"
0:
08
09
1+
0r
0;
#365000
1"
18
19
0+
0>
0s
1i
1O
07
0%
#370000
0"
08
09
1+
#375000
1"
18
19
0+
#380000
0"
08
09
1+
#385000
1"
18
19
0+
#390000
0"
08
09
1+
#395000
1"
18
19
0+
#400000
0"
08
09
1+
#405000
1"
18
19
0+
#410000
0"
08
09
1+
#415000
1"
18
19
0+
#420000
0"
08
09
1+
#425000
1"
18
19
0+
#430000
0"
08
09
1+
#435000
1"
18
19
0+
#440000
0"
08
09
1+
#445000
1"
18
19
0+
#450000
0"
08
09
1+
#455000
1"
18
19
0+
#460000
0"
08
09
1+
#465000
1"
18
19
0+
#470000
0"
08
09
1+
#475000
1"
18
19
0+
#480000
0"
08
09
1+
#485000
1"
18
19
0+
#490000
0"
08
09
1+
#495000
1"
18
19
0+
#500000
0"
08
09
1+
#505000
1"
18
19
0+
#510000
b100000000000000 !
b100010000000000 !
b100011000000000 !
b100011000010000 !
b100011000010100 !
b1100011000010100 !
b1101011000010100 !
b1101011010010100 !
b1101011011010100 !
b1101011011010110 !
0"
1]
1?
1A
1C
1D
1E
1F
1H
1M
1J
08
09
1+
1^
1\
1Z
1X
1W
1T
1S
1Q
1N
1L
#515000
1"
18
19
0+
1$!
1#!
1!!
1}
1|
1z
1y
1w
1u
1t
1a
1b
1c
1d
1e
#520000
0"
08
09
1+
#525000
1"
18
19
0+
#530000
0"
08
09
1+
#535000
1"
18
19
0+
#540000
0"
08
09
1+
#545000
1"
18
19
0+
#550000
1$
0"
1:
08
09
1+
1f
1`
0\
1[
0Z
1Y
0W
1V
0S
1R
0Q
1P
0O
0L
1K
1;
1L
#555000
1"
18
19
0+
1g
1>
1O
0K
0i
0L
#560000
0"
08
09
1+
#565000
1"
18
19
0+
1%!
0#!
1"!
0!!
1~
0|
1{
0y
1x
0w
1v
0t
1k
1h
0^
1\
0[
1Z
0X
1W
0T
1S
0R
1Q
0N
#570000
0"
08
09
1+
#575000
1"
18
19
0+
0$!
1#!
0"!
1!!
0}
1|
0z
1y
0x
1w
0u
1*!
0`
1^
0\
1[
0Y
1X
0V
1T
0S
1R
0P
1j
0h
12
1*
#580000
0$
0"
0:
08
09
1+
#585000
1"
18
19
0+
0%!
1$!
0#!
1"!
0~
1}
0{
1z
0y
1x
0v
1)!
0*!
0k
1`
0^
1\
0Z
1Y
0W
1V
0T
1S
0Q
13
02
1)
0*
#590000
0"
08
09
1+
#595000
1"
18
19
0+
1%!
0$!
1#!
0!!
1~
0|
1{
0z
1y
0w
1k
1h
0`
1^
0[
1Z
0X
1W
0V
1T
0d
0R
#600000
0"
08
09
1+
#605000
1"
18
19
0+
0%!
1$!
0"!
1!!
0}
1|
0{
1z
0x
1*!
0k
1`
0\
1[
0Y
1X
0W
1V
0S
1l
0j
12
1*
1m
#610000
0"
08
09
1+
#615000
1"
18
19
0+
1%!
0#!
1"!
0~
1}
0|
1{
0y
1k
0h
0^
1\
0Z
1Y
0X
1W
0T
#620000
0"
08
09
1+
#625000
1"
18
19
0+
0$!
1#!
0!!
1~
0}
1|
0z
1(!
0)!
0*!
0`
1^
0[
1Z
0Y
1X
0V
0n
0m
0l
1h
14
03
02
1(
0)
0*
1o
1n
1m
0o
#630000
0"
08
09
1+
#635000
1"
18
19
0+
0%!
1$!
0"!
1!!
0~
1}
0{
1*!
0k
1`
0\
1[
0Z
1Y
0c
0W
1j
12
1*
#640000
0"
08
09
1+
#645000
1"
18
19
0+
1%!
0#!
1"!
0!!
1~
0|
1k
0h
0^
1\
0[
1Z
0X
#650000
0"
08
09
1+
#655000
1"
18
19
0+
0$!
1#!
0"!
1!!
0}
1)!
0*!
0`
1^
0\
1[
0Y
1h
13
02
1)
0*
#660000
0"
08
09
1+
#665000
1"
18
19
0+
0%!
1$!
0#!
1"!
0~
1*!
0k
1`
0^
1\
0Z
1l
0j
12
1*
0n
0m
1o
#670000
0"
08
09
1+
#675000
1"
18
19
0+
1%!
0$!
1#!
0!!
1k
0h
0`
1^
0b
0[
#680000
0"
08
09
1+
#685000
1"
18
19
0+
0%!
1$!
0"!
1'!
0(!
0)!
0*!
0k
1`
0\
1p
0o
1n
1m
0l
15
04
03
02
1'
0(
0)
0*
1q
0p
1o
0m
0q
#690000
0"
08
09
1+
#695000
1"
18
19
0+
1%!
0#!
1k
1h
0^
#700000
0"
08
09
1+
#705000
1"
18
19
0+
0$!
1*!
0`
1j
0h
12
1*
#710000
0"
08
09
1+
#715000
1"
18
19
0+
0%!
1)!
0*!
0k
0a
13
02
1)
0*
0e
1r
0f
#720000
0"
08
09
1+
#725000
1"
18
19
0+
0g
1s
0r
0O
0;
17
1%
#730000
0"
08
09
1+
#735000
1"
18
19
0+
0>
0s
1i
1^
1\
1Z
1X
1W
1T
1S
1Q
1O
1N
1L
07
0%
0)!
0'!
0j
0o
03
05
0)
0'
#740000
0"
08
09
1+
#745000
1"
18
19
0+
1$!
1#!
1!!
1}
1|
1z
1y
1w
1u
1t
1a
1b
1c
1d
1e
#750000
0"
08
09
1+
#755000
1"
18
19
0+
#760000
0"
08
09
1+
#765000
1"
18
19
0+
#770000
0"
08
09
1+
#775000
1"
18
19
0+
#780000
b1111011011010110 !
b1111011111010110 !
b1111011111110110 !
b1111011111111110 !
b1111011111111111 !
b1111111111111111 !
0"
1_
1@
1B
1U
1G
1I
08
09
1+
1`
1[
1Y
1V
1R
1P
#785000
1"
18
19
0+
1%!
1"!
1~
1{
1x
1v
#790000
0"
08
09
1+
#795000
1"
18
19
0+
#800000
1$
0"
1:
08
09
1+
1f
0O
0L
1K
1;
1L
#805000
1"
18
19
0+
1g
1>
1k
1h
1O
0K
0i
0L
#810000
0$
0"
0:
08
09
1+
#815000
1"
18
19
0+
0t
1*!
0N
1j
0h
12
1*
#820000
0"
08
09
1+
#825000
1"
18
19
0+
0u
1)!
0*!
0P
1h
13
02
1)
0*
#830000
0"
08
09
1+
#835000
1"
18
19
0+
0v
1*!
0Q
1l
0j
0h
12
1*
1m
#840000
0"
08
09
1+
#845000
1"
18
19
0+
0w
1(!
0)!
0*!
0d
0R
0n
0m
0l
1h
14
03
02
1(
0)
0*
1o
1n
1m
0o
#850000
0"
08
09
1+
#855000
1"
18
19
0+
0x
1*!
0S
1j
0h
12
1*
#860000
0"
08
09
1+
#865000
1"
18
19
0+
0y
1)!
0*!
0T
1h
13
02
1)
0*
#870000
0"
08
09
1+
#875000
1"
18
19
0+
0z
1*!
0V
1l
0j
0h
12
1*
0n
0m
1o
#880000
0"
08
09
1+
#885000
1"
18
19
0+
0{
1'!
0(!
0)!
0*!
0c
0W
1p
0o
1n
1m
0l
1h
15
04
03
02
1'
0(
0)
0*
1q
0p
1o
0m
0q
#890000
0"
08
09
1+
#895000
1"
18
19
0+
0|
1*!
0X
1j
0h
12
1*
#900000
0"
08
09
1+
#905000
1"
18
19
0+
0}
1)!
0*!
0Y
1h
13
02
1)
0*
#910000
0"
08
09
1+
#915000
1"
18
19
0+
0~
1*!
0Z
1l
0j
0h
12
1*
1m
#920000
0"
08
09
1+
#925000
1"
18
19
0+
0!!
1(!
0)!
0*!
0b
0[
0n
0m
0l
1h
14
03
02
1(
0)
0*
1p
0o
1n
1m
1q
0p
1o
0q
#930000
0"
08
09
1+
#935000
1"
18
19
0+
0"!
1*!
0\
1j
0h
12
1*
#940000
0"
08
09
1+
#945000
1"
18
19
0+
0#!
1)!
0*!
0^
1h
13
02
1)
0*
#950000
0"
08
09
1+
#955000
1"
18
19
0+
0$!
1*!
0`
1l
0j
0h
12
1*
0n
0m
1p
0o
1q
#960000
0"
08
09
1+
#965000
1"
18
19
0+
0%!
1&!
0'!
0(!
0)!
0*!
0k
0a
0q
0p
1o
1n
1m
0l
16
05
04
03
02
1&
0'
0(
0)
0*
0e
1q
0o
0m
1r
0f
#970000
0"
08
09
1+
#975000
1"
18
19
0+
0g
1s
0r
0O
0;
17
1%
#980000
0"
08
09
1+
#985000
1"
18
19
0+
0>
0s
1i
1`
1^
1\
1[
1Z
1Y
1X
1W
1V
1T
1S
1R
1Q
1P
1O
1N
1L
07
0%
0&!
0q
06
0&
#990000
0"
08
09
1+
#995000
1"
18
19
0+
1%!
1$!
1#!
1"!
1!!
1~
1}
1|
1{
1z
1y
1x
1w
1v
1u
1t
1a
1b
1c
1d
1e
