quartus/Schematic/freqdiv2/simulation/qsim/freqdiv2.msim.vcd
$comment
	File created using the following command:
		vcd file freqdiv2.msim.vcd -direction
$end
$date
	Thu Nov  7 17:06:47 2024
$end
$version
	ModelSim Version 10.1d
$end
$timescale
	1ps
$end
$scope module freqdiv2_vlg_vec_tst $end
$var reg 1 ! CLK $end
$var reg 1 " R $end
$var reg 1 # S $end
$var wire 1 $ Q $end
$var wire 1 % Qn $end
$var wire 1 & sampler $end
$scope module i1 $end
$var wire 1 ' gnd $end
$var wire 1 ( vcc $end
$var wire 1 ) unknown $end
$var tri1 1 * devclrn $end
$var tri1 1 + devpor $end
$var tri1 1 , devoe $end
$var wire 1 - Q~output_o $end
$var wire 1 . Qn~output_o $end
$var wire 1 / S~input_o $end
$var wire 1 0 CLK~input_o $end
$var wire 1 1 R~input_o $end
$var wire 1 2 inst|inst|inst2~1_combout $end
$var wire 1 3 inst|inst|inst2~2_combout $end
$var wire 1 4 inst|inst1|inst2~1_combout $end
$var wire 1 5 inst|inst1|inst3~0_combout $end
$var wire 1 6 inst|inst1|inst2~2_combout $end
$var wire 1 7 inst|inst1|inst3~1_combout $end
$upscope $end
$upscope $end
$enddefinitions $end
#0
$dumpvars
0!
1"
0#
0$
1%
x&
0'
1(
x)
1*
1+
1,
0-
1.
0/
00
11
12
13
14
05
16
07
$end
#5000
1!
10
0&
#10000
0!
00
1&
#15000
1!
10
0&
#20000
0!
00
1&
#25000
1!
10
0&
#30000
0!
00
1&
#35000
1!
10
0&
#40000
0!
00
1&
#45000
1!
10
0&
#50000
0"
0!
01
00
1&
15
02
03
#55000
1!
10
0&
04
06
17
1-
1$
0.
0%
#60000
0!
00
1&
14
12
13
#65000
1!
10
0&
05
07
16
1.
0-
1%
0$
#70000
0!
00
1&
15
02
03
#75000
1!
10
0&
04
06
17
1-
1$
0.
0%
#80000
0!
00
1&
14
12
13
#85000
1!
10
0&
05
07
16
1.
0-
1%
0$
#90000
0!
00
1&
15
02
03
#95000
1!
10
0&
04
06
17
1-
1$
0.
0%
#100000
0!
00
1&
14
12
13
#105000
1!
10
0&
05
07
16
1.
0-
1%
0$
#110000
0!
00
1&
15
02
03
#115000
1!
10
0&
04
06
17
1-
1$
0.
0%
#120000
0!
00
1&
14
12
13
#125000
1!
10
0&
05
07
16
1.
0-
1%
0$
#130000
0!
00
1&
15
02
03
#135000
1!
10
0&
04
06
17
1-
1$
0.
0%
#140000
0!
00
1&
14
12
13
#145000
1!
10
0&
05
07
16
1.
0-
1%
0$
#150000
0!
00
1&
15
02
03
#155000
1!
10
0&
04
06
17
1-
1$
0.
0%
#160000
0!
00
1&
14
12
13
#165000
1!
10
0&
05
07
16
1.
0-
1%
0$
#170000
0!
00
1&
15
02
03
#175000
1!
10
0&
04
06
17
1-
1$
0.
0%
#180000
0!
00
1&
14
12
13
#185000
1!
10
0&
05
07
16
1.
0-
1%
0$
#190000
0!
00
1&
15
02
03
#195000
1!
10
0&
04
06
17
1-
1$
0.
0%
#200000
0!
00
1&
14
12
13
#205000
1!
10
0&
05
07
16
1.
0-
1%
0$
#210000
0!
00
1&
15
02
03
#215000
1!
10
0&
04
06
17
1-
1$
0.
0%
#220000
0!
00
1&
14
12
13
#225000
1!
10
0&
05
07
16
1.
0-
1%
0$
#230000
0!
00
1&
15
02
03
#235000
1!
10
0&
04
06
17
1-
1$
0.
0%
#240000
0!
00
1&
14
12
13
#245000
1!
10
0&
05
07
16
1.
0-
1%
0$
#250000
0!
00
1&
15
02
03
#255000
1!
10
0&
04
06
17
1-
1$
0.
0%
#260000
0!
00
1&
14
12
13
#265000
1!
10
0&
05
07
16
1.
0-
1%
0$
#270000
0!
00
1&
15
02
03
#275000
1!
10
0&
04
06
17
1-
1$
0.
0%
#280000
0!
00
1&
14
12
13
#285000
1!
10
0&
05
07
16
1.
0-
1%
0$
#290000
0!
00
1&
15
02
03
#295000
1!
10
0&
04
06
17
1-
1$
0.
0%
#300000
0!
00
1&
14
12
13
#305000
1!
10
0&
05
07
16
1.
0-
1%
0$
#310000
0!
00
1&
15
02
03
#315000
1!
10
0&
04
06
17
1-
1$
0.
0%
#320000
0!
00
1&
14
12
13
#325000
1!
10
0&
05
07
16
1.
0-
1%
0$
#330000
0!
00
1&
15
02
03
#335000
1!
10
0&
04
06
17
1-
1$
0.
0%
#340000
0!
00
1&
14
12
13
#345000
1!
10
0&
05
07
16
1.
0-
1%
0$
#350000
0!
00
1&
15
02
03
#355000
1!
10
0&
04
06
17
1-
1$
0.
0%
#360000
0!
00
1&
14
12
13
#365000
1!
10
0&
05
07
16
1.
0-
1%
0$
#370000
0!
00
1&
15
02
03
#375000
1!
10
0&
04
06
17
1-
1$
0.
0%
#380000
0!
00
1&
14
12
13
#385000
1!
10
0&
05
07
16
1.
0-
1%
0$
#390000
0!
00
1&
15
02
03
#395000
1!
10
0&
04
06
17
1-
1$
0.
0%
#400000
0!
00
1&
14
12
13
#405000
1!
10
0&
05
07
16
1.
0-
1%
0$
#410000
0!
00
1&
15
02
03
#415000
1!
10
0&
04
06
17
1-
1$
0.
0%
#420000
0!
00
1&
14
12
13
#425000
1!
10
0&
05
07
16
1.
0-
1%
0$
#430000
0!
00
1&
15
02
03
#435000
1!
10
0&
04
06
17
1-
1$
0.
0%
#440000
0!
00
1&
14
12
13
#445000
1!
10
0&
05
07
16
1.
0-
1%
0$
#450000
0!
00
1&
15
02
03
#455000
1!
10
0&
04
06
17
1-
1$
0.
0%
#460000
0!
00
1&
14
12
13
#465000
1!
10
0&
05
07
16
1.
0-
1%
0$
#470000
0!
00
1&
15
02
03
#475000
1!
10
0&
04
06
17
1-
1$
0.
0%
#480000
0!
00
1&
14
12
13
#485000
1!
10
0&
05
07
16
1.
0-
1%
0$
#490000
0!
00
1&
15
02
03
#495000
1!
10
0&
04
06
17
1-
1$
0.
0%
#500000
0!
00
1&
14
12
13
#505000
1!
10
0&
05
07
16
1.
0-
1%
0$
#510000
0!
00
1&
15
02
03
#515000
1!
10
0&
04
06
17
1-
1$
0.
0%
#520000
0!
00
1&
14
12
13
#525000
1!
10
0&
05
07
16
1.
0-
1%
0$
#530000
0!
00
1&
15
02
03
#535000
1!
10
0&
04
06
17
1-
1$
0.
0%
#540000
0!
00
1&
14
12
13
#545000
1!
10
0&
05
07
16
1.
0-
1%
0$
#550000
0!
00
1&
15
02
03
#555000
1!
10
0&
04
06
17
1-
1$
0.
0%
#560000
0!
00
1&
14
12
13
#565000
1!
10
0&
05
07
16
1.
0-
1%
0$
#570000
0!
00
1&
15
02
03
#575000
1!
10
0&
04
06
17
1-
1$
0.
0%
#580000
0!
00
1&
14
12
13
#585000
1!
10
0&
05
07
16
1.
0-
1%
0$
#590000
0!
00
1&
15
02
03
#595000
1!
10
0&
04
06
17
1-
1$
0.
0%
#600000
0!
00
1&
14
12
13
#605000
1!
10
0&
05
07
16
1.
0-
1%
0$
#610000
0!
00
1&
15
02
03
#615000
1!
10
0&
04
06
17
1-
1$
0.
0%
#620000
0!
00
1&
14
12
13
#625000
1!
10
0&
05
07
16
1.
0-
1%
0$
#630000
0!
00
1&
15
02
03
#635000
1!
10
0&
04
06
17
1-
1$
0.
0%
#640000
0!
00
1&
14
12
13
#645000
1!
10
0&
05
07
16
1.
0-
1%
0$
#650000
0!
00
1&
15
02
03
#655000
1!
10
0&
04
06
17
1-
1$
0.
0%
#660000
0!
00
1&
14
12
13
#665000
1!
10
0&
05
07
16
1.
0-
1%
0$
#670000
0!
00
1&
15
02
03
#675000
1!
10
0&
04
06
17
1-
1$
0.
0%
#680000
0!
00
1&
14
12
13
#685000
1!
10
0&
05
07
16
1.
0-
1%
0$
#690000
0!
00
1&
15
02
03
#695000
1!
10
0&
04
06
17
1-
1$
0.
0%
#700000
0!
00
1&
14
12
13
#705000
1!
10
0&
05
07
16
1.
0-
1%
0$
#710000
0!
00
1&
15
02
03
#715000
1!
10
0&
04
06
17
1-
1$
0.
0%
#720000
0!
00
1&
14
12
13
#725000
1!
10
0&
05
07
16
1.
0-
1%
0$
#730000
0!
00
1&
15
02
03
#735000
1!
10
0&
04
06
17
1-
1$
0.
0%
#740000
0!
00
1&
14
12
13
#745000
1!
10
0&
05
07
16
1.
0-
1%
0$
#750000
0!
00
1&
15
02
03
#755000
1!
10
0&
04
06
17
1-
1$
0.
0%
#760000
0!
00
1&
14
12
13
#765000
1!
10
0&
05
07
16
1.
0-
1%
0$
#770000
0!
00
1&
15
02
03
#775000
1!
10
0&
04
06
17
1-
1$
0.
0%
#780000
0!
00
1&
14
12
13
#785000
1!
10
0&
05
07
16
1.
0-
1%
0$
#790000
0!
00
1&
15
02
03
#795000
1!
10
0&
04
06
17
1-
1$
0.
0%
#800000
0!
00
1&
14
12
13
#805000
1!
10
0&
05
07
16
1.
0-
1%
0$
#810000
0!
00
1&
15
02
03
#815000
1!
10
0&
04
06
17
1-
1$
0.
0%
#820000
0!
00
1&
14
12
13
#825000
1!
10
0&
05
07
16
1.
0-
1%
0$
#830000
0!
00
1&
15
02
03
#835000
1!
10
0&
04
06
17
1-
1$
0.
0%
#840000
0!
00
1&
14
12
13
#845000
1!
10
0&
05
07
16
1.
0-
1%
0$
#850000
0!
00
1&
15
02
03
#855000
1!
10
0&
04
06
17
1-
1$
0.
0%
#860000
0!
00
1&
14
12
13
#865000
1!
10
0&
05
07
16
1.
0-
1%
0$
#870000
0!
00
1&
15
02
03
#875000
1!
10
0&
04
06
17
1-
1$
0.
0%
#880000
0!
00
1&
14
12
13
#885000
1!
10
0&
05
07
16
1.
0-
1%
0$
#890000
0!
00
1&
15
02
03
#895000
1!
10
0&
04
06
17
1-
1$
0.
0%
#900000
0!
00
1&
14
12
13
#905000
1!
10
0&
05
07
16
1.
0-
1%
0$
#910000
0!
00
1&
15
02
03
#915000
1!
10
0&
04
06
17
1-
1$
0.
0%
#920000
0!
00
1&
14
12
13
#925000
1!
10
0&
05
07
16
1.
0-
1%
0$
#930000
0!
00
1&
15
02
03
#935000
1!
10
0&
04
06
17
1-
1$
0.
0%
#940000
0!
00
1&
14
12
13
#945000
1!
10
0&
05
07
16
1.
0-
1%
0$
#950000
0!
00
1&
15
02
03
#955000
1!
10
0&
04
06
17
1-
1$
0.
0%
#960000
0!
00
1&
14
12
13
#965000
1!
10
0&
05
07
16
1.
0-
1%
0$
#970000
0!
00
1&
15
02
03
#975000
1!
10
0&
04
06
17
1-
1$
0.
0%
#980000
0!
00
1&
14
12
13
#985000
1!
10
0&
05
07
16
1.
0-
1%
0$
#990000
0!
00
1&
15
02
03
#995000
1!
10
0&
04
06
17
1-
1$
0.
0%
