quartus/teste/simulation/qsim/teste.msim.vcd
$comment
	File created using the following command:
		vcd file teste.msim.vcd -direction
$end
$date
	Tue Nov 05 22:17:21 2024
$end
$version
	ModelSim Version 10.1d
$end
$timescale
	1ps
$end
$scope module teste_vlg_vec_tst $end
$var reg 1 ! pin_name1 $end
$var wire 1 " pin_name2 $end
$var wire 1 # sampler $end
$scope module i1 $end
$var wire 1 $ gnd $end
$var wire 1 % vcc $end
$var wire 1 & unknown $end
$var tri1 1 ' devclrn $end
$var tri1 1 ( devpor $end
$var tri1 1 ) devoe $end
$var wire 1 * pin_name2~output_o $end
$var wire 1 + pin_name1~input_o $end
$upscope $end
$upscope $end
$enddefinitions $end
#0
$dumpvars
0!
1"
x#
0$
1%
x&
1'
1(
1)
1*
0+
$end
#10000
1!
1+
0#
0*
0"
#25000
0!
0+
1#
1*
1"
#35000
1!
1+
0#
0*
0"
#50000
0!
0+
1#
1*
1"
#55000
1!
1+
0#
0*
0"
#60000
0!
0+
1#
1*
1"
#70000
1!
1+
0#
0*
0"
#80000
0!
0+
1#
1*
1"
#85000
1!
1+
0#
0*
0"
#95000
0!
0+
1#
1*
1"
#115000
1!
1+
0#
0*
0"
#120000
0!
0+
1#
1*
1"
#125000
1!
1+
0#
0*
0"
#130000
0!
0+
1#
1*
1"
#135000
1!
1+
0#
0*
0"
#145000
0!
0+
1#
1*
1"
#160000
1!
1+
0#
0*
0"
#175000
0!
0+
1#
1*
1"
#185000
1!
1+
0#
0*
0"
#190000
0!
0+
1#
1*
1"
#195000
1!
1+
0#
0*
0"
#200000
0!
0+
1#
1*
1"
#205000
1!
1+
0#
0*
0"
#210000
0!
0+
1#
1*
1"
#220000
1!
1+
0#
0*
0"
#230000
0!
0+
1#
1*
1"
#235000
1!
1+
0#
0*
0"
#240000
0!
0+
1#
1*
1"
#245000
1!
1+
0#
0*
0"
#250000
0!
0+
1#
1*
1"
#265000
1!
1+
0#
0*
0"
#270000
0!
0+
1#
1*
1"
#280000
1!
1+
0#
0*
0"
#285000
0!
0+
1#
1*
1"
#305000
1!
1+
0#
0*
0"
#320000
0!
0+
1#
1*
1"
#325000
1!
1+
0#
0*
0"
#330000
0!
0+
1#
1*
1"
#335000
1!
1+
0#
0*
0"
#340000
0!
0+
1#
1*
1"
#345000
1!
1+
0#
0*
0"
#370000
0!
0+
1#
1*
1"
#375000
1!
1+
0#
0*
0"
#380000
0!
0+
1#
1*
1"
#400000
1!
1+
0#
0*
0"
#410000
0!
0+
1#
1*
1"
#415000
1!
1+
0#
0*
0"
#435000
0!
0+
1#
1*
1"
#455000
1!
1+
0#
0*
0"
#470000
0!
0+
1#
1*
1"
#505000
1!
1+
0#
0*
0"
#510000
0!
0+
1#
1*
1"
#515000
1!
1+
0#
0*
0"
#520000
0!
0+
1#
1*
1"
#540000
1!
1+
0#
0*
0"
#545000
0!
0+
1#
1*
1"
#550000
1!
1+
0#
0*
0"
#555000
0!
0+
1#
1*
1"
#560000
1!
1+
0#
0*
0"
#565000
0!
0+
1#
1*
1"
#575000
1!
1+
0#
0*
0"
#580000
0!
0+
1#
1*
1"
#585000
1!
1+
0#
0*
0"
#595000
0!
0+
1#
1*
1"
#610000
1!
1+
0#
0*
0"
#615000
0!
0+
1#
1*
1"
#620000
1!
1+
0#
0*
0"
#625000
0!
0+
1#
1*
1"
#630000
1!
1+
0#
0*
0"
#635000
0!
0+
1#
1*
1"
#645000
1!
1+
0#
0*
0"
#655000
0!
0+
1#
1*
1"
#660000
1!
1+
0#
0*
0"
#680000
0!
0+
1#
1*
1"
#695000
1!
1+
0#
0*
0"
#700000
0!
0+
1#
1*
1"
#710000
1!
1+
0#
0*
0"
#715000
0!
0+
1#
1*
1"
#720000
1!
1+
0#
0*
0"
#725000
0!
0+
1#
1*
1"
#730000
1!
1+
0#
0*
0"
#740000
0!
0+
1#
1*
1"
#765000
1!
1+
0#
0*
0"
#780000
0!
0+
1#
1*
1"
#790000
1!
1+
0#
0*
0"
#800000
0!
0+
1#
1*
1"
#805000
1!
1+
0#
0*
0"
#810000
0!
0+
1#
1*
1"
#815000
1!
1+
0#
0*
0"
#820000
0!
0+
1#
1*
1"
#840000
1!
1+
0#
0*
0"
#850000
0!
0+
1#
1*
1"
#855000
1!
1+
0#
0*
0"
#860000
0!
0+
1#
1*
1"
#865000
1!
1+
0#
0*
0"
#870000
0!
0+
1#
1*
1"
#890000
1!
1+
0#
0*
0"
#895000
0!
0+
1#
1*
1"
#900000
1!
1+
0#
0*
0"
#910000
0!
0+
1#
1*
1"
#920000
1!
1+
0#
0*
0"
#940000
0!
0+
1#
1*
1"
#945000
1!
1+
0#
0*
0"
#965000
0!
0+
1#
1*
1"
#975000
1!
1+
0#
0*
0"
#980000
0!
0+
1#
1*
1"
#985000
1!
1+
0#
0*
0"
