quartus/Schematic/decodificardor2x4/simulation/qsim/decodificador2x4.msim.vcd
$comment
	File created using the following command:
		vcd file decodificador2x4.msim.vcd -direction
$end
$date
	Wed Nov  6 13:41:46 2024
$end
$version
	ModelSim Version 10.1d
$end
$timescale
	1ps
$end
$scope module decodificador2x4_vlg_vec_tst $end
$var reg 1 ! e0 $end
$var reg 1 " e1 $end
$var wire 1 # s [3] $end
$var wire 1 $ s [2] $end
$var wire 1 % s [1] $end
$var wire 1 & s [0] $end
$var wire 1 ' sampler $end
$scope module i1 $end
$var wire 1 ( gnd $end
$var wire 1 ) vcc $end
$var wire 1 * unknown $end
$var tri1 1 + devclrn $end
$var tri1 1 , devpor $end
$var tri1 1 - devoe $end
$var wire 1 . s[3]~output_o $end
$var wire 1 / s[2]~output_o $end
$var wire 1 0 s[1]~output_o $end
$var wire 1 1 s[0]~output_o $end
$var wire 1 2 e1~input_o $end
$var wire 1 3 e0~input_o $end
$var wire 1 4 inst2~0_combout $end
$var wire 1 5 inst2~1_combout $end
$var wire 1 6 inst2~2_combout $end
$var wire 1 7 inst~combout $end
$upscope $end
$upscope $end
$enddefinitions $end
#0
$dumpvars
0!
0"
1&
0%
0$
0#
x'
0(
1)
x*
1+
1,
1-
0.
0/
00
11
02
03
04
05
06
07
$end
#5000
1!
13
0'
17
16
01
10
0&
1%
#10000
1"
0!
12
03
1'
06
15
00
1/
0%
1$
#15000
1!
13
0'
05
14
0/
1.
0$
1#
#20000
0"
0!
02
03
1'
07
04
11
0.
1&
0#
#25000
1!
13
0'
17
16
01
10
0&
1%
#30000
1"
0!
12
03
1'
06
15
00
1/
0%
1$
#35000
1!
13
0'
05
14
0/
1.
0$
1#
#40000
0"
0!
02
03
1'
07
04
11
0.
1&
0#
#45000
1!
13
0'
17
16
01
10
0&
1%
#50000
1"
0!
12
03
1'
06
15
00
1/
0%
1$
#55000
1!
13
0'
05
14
0/
1.
0$
1#
#60000
0"
0!
02
03
1'
07
04
11
0.
1&
0#
#65000
1!
13
0'
17
16
01
10
0&
1%
#70000
1"
0!
12
03
1'
06
15
00
1/
0%
1$
#75000
1!
13
0'
05
14
0/
1.
0$
1#
#80000
0"
0!
02
03
1'
07
04
11
0.
1&
0#
#85000
1!
13
0'
17
16
01
10
0&
1%
#90000
1"
0!
12
03
1'
06
15
00
1/
0%
1$
#95000
1!
13
0'
05
14
0/
1.
0$
1#
#100000
0"
0!
02
03
1'
07
04
11
0.
1&
0#
#105000
1!
13
0'
17
16
01
10
0&
1%
#110000
1"
0!
12
03
1'
06
15
00
1/
0%
1$
#115000
1!
13
0'
05
14
0/
1.
0$
1#
#120000
0"
0!
02
03
1'
07
04
11
0.
1&
0#
#125000
1!
13
0'
17
16
01
10
0&
1%
#130000
1"
0!
12
03
1'
06
15
00
1/
0%
1$
#135000
1!
13
0'
05
14
0/
1.
0$
1#
#140000
0"
0!
02
03
1'
07
04
11
0.
1&
0#
#145000
1!
13
0'
17
16
01
10
0&
1%
#150000
1"
0!
12
03
1'
06
15
00
1/
0%
1$
#155000
1!
13
0'
05
14
0/
1.
0$
1#
#160000
0"
0!
02
03
1'
07
04
11
0.
1&
0#
#165000
1!
13
0'
17
16
01
10
0&
1%
#170000
1"
0!
12
03
1'
06
15
00
1/
0%
1$
#175000
1!
13
0'
05
14
0/
1.
0$
1#
#180000
0"
0!
02
03
1'
07
04
11
0.
1&
0#
#185000
1!
13
0'
17
16
01
10
0&
1%
#190000
1"
0!
12
03
1'
06
15
00
1/
0%
1$
#195000
1!
13
0'
05
14
0/
1.
0$
1#
#200000
0"
0!
02
03
1'
07
04
11
0.
1&
0#
#205000
1!
13
0'
17
16
01
10
0&
1%
#210000
1"
0!
12
03
1'
06
15
00
1/
0%
1$
#215000
1!
13
0'
05
14
0/
1.
0$
1#
#220000
0"
0!
02
03
1'
07
04
11
0.
1&
0#
#225000
1!
13
0'
17
16
01
10
0&
1%
#230000
1"
0!
12
03
1'
06
15
00
1/
0%
1$
#235000
1!
13
0'
05
14
0/
1.
0$
1#
#240000
0"
0!
02
03
1'
07
04
11
0.
1&
0#
#245000
1!
13
0'
17
16
01
10
0&
1%
#250000
1"
0!
12
03
1'
06
15
00
1/
0%
1$
#255000
1!
13
0'
05
14
0/
1.
0$
1#
#260000
0"
0!
02
03
1'
07
04
11
0.
1&
0#
#265000
1!
13
0'
17
16
01
10
0&
1%
#270000
1"
0!
12
03
1'
06
15
00
1/
0%
1$
#275000
1!
13
0'
05
14
0/
1.
0$
1#
#280000
0"
0!
02
03
1'
07
04
11
0.
1&
0#
#285000
1!
13
0'
17
16
01
10
0&
1%
#290000
1"
0!
12
03
1'
06
15
00
1/
0%
1$
#295000
1!
13
0'
05
14
0/
1.
0$
1#
#300000
0"
0!
02
03
1'
07
04
11
0.
1&
0#
#305000
1!
13
0'
17
16
01
10
0&
1%
#310000
1"
0!
12
03
1'
06
15
00
1/
0%
1$
#315000
1!
13
0'
05
14
0/
1.
0$
1#
#320000
0"
0!
02
03
1'
07
04
11
0.
1&
0#
#325000
1!
13
0'
17
16
01
10
0&
1%
#330000
1"
0!
12
03
1'
06
15
00
1/
0%
1$
#335000
1!
13
0'
05
14
0/
1.
0$
1#
#340000
0"
0!
02
03
1'
07
04
11
0.
1&
0#
#345000
1!
13
0'
17
16
01
10
0&
1%
#350000
1"
0!
12
03
1'
06
15
00
1/
0%
1$
#355000
1!
13
0'
05
14
0/
1.
0$
1#
#360000
0"
0!
02
03
1'
07
04
11
0.
1&
0#
#365000
1!
13
0'
17
16
01
10
0&
1%
#370000
1"
0!
12
03
1'
06
15
00
1/
0%
1$
#375000
1!
13
0'
05
14
0/
1.
0$
1#
#380000
0"
0!
02
03
1'
07
04
11
0.
1&
0#
#385000
1!
13
0'
17
16
01
10
0&
1%
#390000
1"
0!
12
03
1'
06
15
00
1/
0%
1$
#395000
1!
13
0'
05
14
0/
1.
0$
1#
#400000
0"
0!
02
03
1'
07
04
11
0.
1&
0#
#405000
1!
13
0'
17
16
01
10
0&
1%
#410000
1"
0!
12
03
1'
06
15
00
1/
0%
1$
#415000
1!
13
0'
05
14
0/
1.
0$
1#
#420000
0"
0!
02
03
1'
07
04
11
0.
1&
0#
#425000
1!
13
0'
17
16
01
10
0&
1%
#430000
1"
0!
12
03
1'
06
15
00
1/
0%
1$
#435000
1!
13
0'
05
14
0/
1.
0$
1#
#440000
0"
0!
02
03
1'
07
04
11
0.
1&
0#
#445000
1!
13
0'
17
16
01
10
0&
1%
#450000
1"
0!
12
03
1'
06
15
00
1/
0%
1$
#455000
1!
13
0'
05
14
0/
1.
0$
1#
#460000
0"
0!
02
03
1'
07
04
11
0.
1&
0#
#465000
1!
13
0'
17
16
01
10
0&
1%
#470000
1"
0!
12
03
1'
06
15
00
1/
0%
1$
#475000
1!
13
0'
05
14
0/
1.
0$
1#
#480000
0"
0!
02
03
1'
07
04
11
0.
1&
0#
#485000
1!
13
0'
17
16
01
10
0&
1%
#490000
1"
0!
12
03
1'
06
15
00
1/
0%
1$
#495000
1!
13
0'
05
14
0/
1.
0$
1#
#500000
0"
0!
02
03
1'
07
04
11
0.
1&
0#
#505000
1!
13
0'
17
16
01
10
0&
1%
#510000
1"
0!
12
03
1'
06
15
00
1/
0%
1$
#515000
1!
13
0'
05
14
0/
1.
0$
1#
#520000
0"
0!
02
03
1'
07
04
11
0.
1&
0#
#525000
1!
13
0'
17
16
01
10
0&
1%
#530000
1"
0!
12
03
1'
06
15
00
1/
0%
1$
#535000
1!
13
0'
05
14
0/
1.
0$
1#
#540000
0"
0!
02
03
1'
07
04
11
0.
1&
0#
#545000
1!
13
0'
17
16
01
10
0&
1%
#550000
1"
0!
12
03
1'
06
15
00
1/
0%
1$
#555000
1!
13
0'
05
14
0/
1.
0$
1#
#560000
0"
0!
02
03
1'
07
04
11
0.
1&
0#
#565000
1!
13
0'
17
16
01
10
0&
1%
#570000
1"
0!
12
03
1'
06
15
00
1/
0%
1$
#575000
1!
13
0'
05
14
0/
1.
0$
1#
#580000
0"
0!
02
03
1'
07
04
11
0.
1&
0#
#585000
1!
13
0'
17
16
01
10
0&
1%
#590000
1"
0!
12
03
1'
06
15
00
1/
0%
1$
#595000
1!
13
0'
05
14
0/
1.
0$
1#
#600000
0"
0!
02
03
1'
07
04
11
0.
1&
0#
#605000
1!
13
0'
17
16
01
10
0&
1%
#610000
1"
0!
12
03
1'
06
15
00
1/
0%
1$
#615000
1!
13
0'
05
14
0/
1.
0$
1#
#620000
0"
0!
02
03
1'
07
04
11
0.
1&
0#
#625000
1!
13
0'
17
16
01
10
0&
1%
#630000
1"
0!
12
03
1'
06
15
00
1/
0%
1$
#635000
1!
13
0'
05
14
0/
1.
0$
1#
#640000
0"
0!
02
03
1'
07
04
11
0.
1&
0#
#645000
1!
13
0'
17
16
01
10
0&
1%
#650000
1"
0!
12
03
1'
06
15
00
1/
0%
1$
#655000
1!
13
0'
05
14
0/
1.
0$
1#
#660000
0"
0!
02
03
1'
07
04
11
0.
1&
0#
#665000
1!
13
0'
17
16
01
10
0&
1%
#670000
1"
0!
12
03
1'
06
15
00
1/
0%
1$
#675000
1!
13
0'
05
14
0/
1.
0$
1#
#680000
0"
0!
02
03
1'
07
04
11
0.
1&
0#
#685000
1!
13
0'
17
16
01
10
0&
1%
#690000
1"
0!
12
03
1'
06
15
00
1/
0%
1$
#695000
1!
13
0'
05
14
0/
1.
0$
1#
#700000
0"
0!
02
03
1'
07
04
11
0.
1&
0#
#705000
1!
13
0'
17
16
01
10
0&
1%
#710000
1"
0!
12
03
1'
06
15
00
1/
0%
1$
#715000
1!
13
0'
05
14
0/
1.
0$
1#
#720000
0"
0!
02
03
1'
07
04
11
0.
1&
0#
#725000
1!
13
0'
17
16
01
10
0&
1%
#730000
1"
0!
12
03
1'
06
15
00
1/
0%
1$
#735000
1!
13
0'
05
14
0/
1.
0$
1#
#740000
0"
0!
02
03
1'
07
04
11
0.
1&
0#
#745000
1!
13
0'
17
16
01
10
0&
1%
#750000
1"
0!
12
03
1'
06
15
00
1/
0%
1$
#755000
1!
13
0'
05
14
0/
1.
0$
1#
#760000
0"
0!
02
03
1'
07
04
11
0.
1&
0#
#765000
1!
13
0'
17
16
01
10
0&
1%
#770000
1"
0!
12
03
1'
06
15
00
1/
0%
1$
#775000
1!
13
0'
05
14
0/
1.
0$
1#
#780000
0"
0!
02
03
1'
07
04
11
0.
1&
0#
#785000
1!
13
0'
17
16
01
10
0&
1%
#790000
1"
0!
12
03
1'
06
15
00
1/
0%
1$
#795000
1!
13
0'
05
14
0/
1.
0$
1#
#800000
0"
0!
02
03
1'
07
04
11
0.
1&
0#
#805000
1!
13
0'
17
16
01
10
0&
1%
#810000
1"
0!
12
03
1'
06
15
00
1/
0%
1$
#815000
1!
13
0'
05
14
0/
1.
0$
1#
#820000
0"
0!
02
03
1'
07
04
11
0.
1&
0#
#825000
1!
13
0'
17
16
01
10
0&
1%
#830000
1"
0!
12
03
1'
06
15
00
1/
0%
1$
#835000
1!
13
0'
05
14
0/
1.
0$
1#
#840000
0"
0!
02
03
1'
07
04
11
0.
1&
0#
#845000
1!
13
0'
17
16
01
10
0&
1%
#850000
1"
0!
12
03
1'
06
15
00
1/
0%
1$
#855000
1!
13
0'
05
14
0/
1.
0$
1#
#860000
0"
0!
02
03
1'
07
04
11
0.
1&
0#
#865000
1!
13
0'
17
16
01
10
0&
1%
#870000
1"
0!
12
03
1'
06
15
00
1/
0%
1$
#875000
1!
13
0'
05
14
0/
1.
0$
1#
#880000
0"
0!
02
03
1'
07
04
11
0.
1&
0#
#885000
1!
13
0'
17
16
01
10
0&
1%
#890000
1"
0!
12
03
1'
06
15
00
1/
0%
1$
#895000
1!
13
0'
05
14
0/
1.
0$
1#
#900000
0"
0!
02
03
1'
07
04
11
0.
1&
0#
#905000
1!
13
0'
17
16
01
10
0&
1%
#910000
1"
0!
12
03
1'
06
15
00
1/
0%
1$
#915000
1!
13
0'
05
14
0/
1.
0$
1#
#920000
0"
0!
02
03
1'
07
04
11
0.
1&
0#
#925000
1!
13
0'
17
16
01
10
0&
1%
#930000
1"
0!
12
03
1'
06
15
00
1/
0%
1$
#935000
1!
13
0'
05
14
0/
1.
0$
1#
#940000
0"
0!
02
03
1'
07
04
11
0.
1&
0#
#945000
1!
13
0'
17
16
01
10
0&
1%
#950000
1"
0!
12
03
1'
06
15
00
1/
0%
1$
#955000
1!
13
0'
05
14
0/
1.
0$
1#
#960000
0"
0!
02
03
1'
07
04
11
0.
1&
0#
#965000
1!
13
0'
17
16
01
10
0&
1%
#970000
1"
0!
12
03
1'
06
15
00
1/
0%
1$
#975000
1!
13
0'
05
14
0/
1.
0$
1#
#980000
0"
0!
02
03
1'
07
04
11
0.
1&
0#
#985000
1!
13
0'
17
16
01
10
0&
1%
#990000
1"
0!
12
03
1'
06
15
00
1/
0%
1$
#995000
1!
13
0'
05
14
0/
1.
0$
1#
