quartus/Schematic/mux4x1/simulation/qsim/mux4x1.msim.vcd
$comment
	File created using the following command:
		vcd file mux4x1.msim.vcd -direction
$end
$date
	Wed Nov  6 11:14:47 2024
$end
$version
	ModelSim Version 10.1d
$end
$timescale
	1ps
$end
$scope module mux4x1_vlg_vec_tst $end
$var reg 1 ! in0 $end
$var reg 1 " in1 $end
$var reg 1 # in2 $end
$var reg 1 $ in3 $end
$var reg 2 % sel [1:0] $end
$var wire 1 & s $end
$var wire 1 ' sampler $end
$scope module i1 $end
$var wire 1 ( gnd $end
$var wire 1 ) vcc $end
$var wire 1 * unknown $end
$var tri1 1 + devclrn $end
$var tri1 1 , devpor $end
$var tri1 1 - devoe $end
$var wire 1 . s~output_o $end
$var wire 1 / in3~input_o $end
$var wire 1 0 sel[0]~input_o $end
$var wire 1 1 sel[1]~input_o $end
$var wire 1 2 in1~input_o $end
$var wire 1 3 in0~input_o $end
$var wire 1 4 inst2|inst2~0_combout $end
$var wire 1 5 in2~input_o $end
$var wire 1 6 inst2|inst2~1_combout $end
$upscope $end
$upscope $end
$enddefinitions $end
#0
$dumpvars
0!
0"
0#
0$
b0 %
0&
x'
0(
1)
x*
1+
1,
1-
0.
0/
00
01
02
03
04
05
06
$end
#5000
1!
13
0'
14
16
1.
1&
#10000
1"
0!
12
03
1'
04
06
0.
0&
#15000
1!
13
0'
14
16
1.
1&
#20000
1#
0"
0!
15
02
03
1'
04
06
0.
0&
#25000
1!
13
0'
14
16
1.
1&
#30000
1"
0!
12
03
1'
04
06
0.
0&
#35000
1!
13
0'
14
16
1.
1&
#40000
1$
0#
0"
0!
1/
05
02
03
1'
04
06
0.
0&
#45000
1!
13
0'
14
16
1.
1&
#50000
1"
0!
12
03
1'
04
06
0.
0&
#55000
1!
13
0'
14
16
1.
1&
#60000
1#
0"
0!
15
02
03
1'
04
06
0.
0&
#65000
1!
13
0'
14
16
1.
1&
#70000
1"
0!
12
03
1'
04
06
0.
0&
#75000
1!
13
0'
14
16
1.
1&
#80000
0$
0#
0"
0!
0/
05
02
03
1'
04
06
0.
0&
#85000
1!
13
0'
14
16
1.
1&
#90000
1"
0!
12
03
1'
04
06
0.
0&
#95000
1!
13
0'
14
16
1.
1&
#100000
1#
0"
0!
15
02
03
1'
04
06
0.
0&
#105000
1!
13
0'
14
16
1.
1&
#110000
1"
0!
12
03
1'
04
06
0.
0&
#115000
1!
13
0'
14
16
1.
1&
#120000
1$
0#
0"
0!
1/
05
02
03
1'
04
06
0.
0&
#125000
1!
13
0'
14
16
1.
1&
#130000
1"
0!
12
03
1'
04
06
0.
0&
#135000
1!
13
0'
14
16
1.
1&
#140000
1#
0"
0!
15
02
03
1'
04
06
0.
0&
#145000
1!
13
0'
14
16
1.
1&
#150000
1"
0!
12
03
1'
04
06
0.
0&
#155000
1!
13
0'
14
16
1.
1&
#160000
b1 %
0$
0#
0"
0!
10
0/
05
02
03
1'
04
06
0.
0&
#165000
1!
13
0'
#170000
1"
0!
12
03
1'
14
16
1.
1&
#175000
1!
13
0'
#180000
1#
0"
0!
15
02
03
1'
04
06
0.
0&
#185000
1!
13
0'
#190000
1"
0!
12
03
1'
14
16
1.
1&
#195000
1!
13
0'
#200000
1$
0#
0"
0!
1/
05
02
03
1'
04
06
0.
0&
#205000
1!
13
0'
#210000
1"
0!
12
03
1'
14
16
1.
1&
#215000
1!
13
0'
#220000
1#
0"
0!
15
02
03
1'
04
06
0.
0&
#225000
1!
13
0'
#230000
1"
0!
12
03
1'
14
16
1.
1&
#235000
1!
13
0'
#240000
0$
0#
0"
0!
0/
05
02
03
1'
04
06
0.
0&
#245000
1!
13
0'
#250000
1"
0!
12
03
1'
14
16
1.
1&
#255000
1!
13
0'
#260000
1#
0"
0!
15
02
03
1'
04
06
0.
0&
#265000
1!
13
0'
#270000
1"
0!
12
03
1'
14
16
1.
1&
#275000
1!
13
0'
#280000
1$
0#
0"
0!
1/
05
02
03
1'
04
06
0.
0&
#285000
1!
13
0'
#290000
1"
0!
12
03
1'
14
16
1.
1&
#295000
1!
13
0'
#300000
1#
0"
0!
15
02
03
1'
04
06
0.
0&
#305000
1!
13
0'
#310000
1"
0!
12
03
1'
14
16
1.
1&
#315000
1!
13
0'
#320000
b11 %
b10 %
0$
0#
0"
0!
00
11
0/
05
02
03
1'
04
06
0.
0&
#325000
1!
13
0'
#330000
1"
0!
12
03
1'
#335000
1!
13
0'
#340000
1#
0"
0!
15
02
03
1'
16
1.
1&
#345000
1!
13
0'
#350000
1"
0!
12
03
1'
#355000
1!
13
0'
#360000
1$
0#
0"
0!
1/
05
02
03
1'
06
0.
0&
#365000
1!
13
0'
#370000
1"
0!
12
03
1'
#375000
1!
13
0'
#380000
1#
0"
0!
15
02
03
1'
16
1.
1&
#385000
1!
13
0'
#390000
1"
0!
12
03
1'
#395000
1!
13
0'
#400000
0$
0#
0"
0!
0/
05
02
03
1'
06
0.
0&
#405000
1!
13
0'
#410000
1"
0!
12
03
1'
#415000
1!
13
0'
#420000
1#
0"
0!
15
02
03
1'
16
1.
1&
#425000
1!
13
0'
#430000
1"
0!
12
03
1'
#435000
1!
13
0'
#440000
1$
0#
0"
0!
1/
05
02
03
1'
06
0.
0&
#445000
1!
13
0'
#450000
1"
0!
12
03
1'
#455000
1!
13
0'
#460000
1#
0"
0!
15
02
03
1'
16
1.
1&
#465000
1!
13
0'
#470000
1"
0!
12
03
1'
#475000
1!
13
0'
#480000
b11 %
0$
0#
0"
0!
10
0/
05
02
03
1'
14
06
0.
0&
#485000
1!
13
0'
#490000
1"
0!
12
03
1'
#495000
1!
13
0'
#500000
1#
0"
0!
15
02
03
1'
#505000
1!
13
0'
#510000
1"
0!
12
03
1'
#515000
1!
13
0'
#520000
1$
0#
0"
0!
1/
05
02
03
1'
16
1.
1&
#525000
1!
13
0'
#530000
1"
0!
12
03
1'
#535000
1!
13
0'
#540000
1#
0"
0!
15
02
03
1'
#545000
1!
13
0'
#550000
1"
0!
12
03
1'
#555000
1!
13
0'
#560000
0$
0#
0"
0!
0/
05
02
03
1'
06
0.
0&
#565000
1!
13
0'
#570000
1"
0!
12
03
1'
#575000
1!
13
0'
#580000
1#
0"
0!
15
02
03
1'
#585000
1!
13
0'
#590000
1"
0!
12
03
1'
#595000
1!
13
0'
#600000
1$
0#
0"
0!
1/
05
02
03
1'
16
1.
1&
#605000
1!
13
0'
#610000
1"
0!
12
03
1'
#615000
1!
13
0'
#620000
1#
0"
0!
15
02
03
1'
#625000
1!
13
0'
#630000
1"
0!
12
03
1'
#635000
1!
13
0'
#640000
b1 %
b0 %
0$
0#
0"
0!
00
01
0/
05
02
03
1'
04
06
0.
0&
#645000
1!
13
0'
14
16
1.
1&
#650000
1"
0!
12
03
1'
04
06
0.
0&
#655000
1!
13
0'
14
16
1.
1&
#660000
1#
0"
0!
15
02
03
1'
04
06
0.
0&
#665000
1!
13
0'
14
16
1.
1&
#670000
1"
0!
12
03
1'
04
06
0.
0&
#675000
1!
13
0'
14
16
1.
1&
#680000
1$
0#
0"
0!
1/
05
02
03
1'
04
06
0.
0&
#685000
1!
13
0'
14
16
1.
1&
#690000
1"
0!
12
03
1'
04
06
0.
0&
#695000
1!
13
0'
14
16
1.
1&
#700000
1#
0"
0!
15
02
03
1'
04
06
0.
0&
#705000
1!
13
0'
14
16
1.
1&
#710000
1"
0!
12
03
1'
04
06
0.
0&
#715000
1!
13
0'
14
16
1.
1&
#720000
0$
0#
0"
0!
0/
05
02
03
1'
04
06
0.
0&
#725000
1!
13
0'
14
16
1.
1&
#730000
1"
0!
12
03
1'
04
06
0.
0&
#735000
1!
13
0'
14
16
1.
1&
#740000
1#
0"
0!
15
02
03
1'
04
06
0.
0&
#745000
1!
13
0'
14
16
1.
1&
#750000
1"
0!
12
03
1'
04
06
0.
0&
#755000
1!
13
0'
14
16
1.
1&
#760000
1$
0#
0"
0!
1/
05
02
03
1'
04
06
0.
0&
#765000
1!
13
0'
14
16
1.
1&
#770000
1"
0!
12
03
1'
04
06
0.
0&
#775000
1!
13
0'
14
16
1.
1&
#780000
1#
0"
0!
15
02
03
1'
04
06
0.
0&
#785000
1!
13
0'
14
16
1.
1&
#790000
1"
0!
12
03
1'
04
06
0.
0&
#795000
1!
13
0'
14
16
1.
1&
#800000
b1 %
0$
0#
0"
0!
10
0/
05
02
03
1'
04
06
0.
0&
#805000
1!
13
0'
#810000
1"
0!
12
03
1'
14
16
1.
1&
#815000
1!
13
0'
#820000
1#
0"
0!
15
02
03
1'
04
06
0.
0&
#825000
1!
13
0'
#830000
1"
0!
12
03
1'
14
16
1.
1&
#835000
1!
13
0'
#840000
1$
0#
0"
0!
1/
05
02
03
1'
04
06
0.
0&
#845000
1!
13
0'
#850000
1"
0!
12
03
1'
14
16
1.
1&
#855000
1!
13
0'
#860000
1#
0"
0!
15
02
03
1'
04
06
0.
0&
#865000
1!
13
0'
#870000
1"
0!
12
03
1'
14
16
1.
1&
#875000
1!
13
0'
#880000
0$
0#
0"
0!
0/
05
02
03
1'
04
06
0.
0&
#885000
1!
13
0'
#890000
1"
0!
12
03
1'
14
16
1.
1&
#895000
1!
13
0'
#900000
1#
0"
0!
15
02
03
1'
04
06
0.
0&
#905000
1!
13
0'
#910000
1"
0!
12
03
1'
14
16
1.
1&
#915000
1!
13
0'
#920000
1$
0#
0"
0!
1/
05
02
03
1'
04
06
0.
0&
#925000
1!
13
0'
#930000
1"
0!
12
03
1'
14
16
1.
1&
#935000
1!
13
0'
#940000
1#
0"
0!
15
02
03
1'
04
06
0.
0&
#945000
1!
13
0'
#950000
1"
0!
12
03
1'
14
16
1.
1&
#955000
1!
13
0'
#960000
b11 %
b10 %
0$
0#
0"
0!
00
11
0/
05
02
03
1'
04
06
0.
0&
#965000
1!
13
0'
#970000
1"
0!
12
03
1'
#975000
1!
13
0'
#980000
1#
0"
0!
15
02
03
1'
16
1.
1&
#985000
1!
13
0'
#990000
1"
0!
12
03
1'
#995000
1!
13
0'
